<?xml version="1.0" encoding="utf-8"?>
<!-- Generator: Adobe Illustrator 23.0.6, SVG Export Plug-In . SVG Version: 6.00 Build 0)  -->
<svg version="1.1" id="Layer_1" xmlns="http://www.w3.org/2000/svg" xmlns:xlink="http://www.w3.org/1999/xlink" x="0px" y="0px"
	 viewBox="0 0 88 77" style="enable-background:new 0 0 88 77;" xml:space="preserve">
<style type="text/css">
	.st0{clip-path:url(#SVGID_2_);}
	.st1{fill:#1A1A1A;}
</style>
<g>
	<defs>
		<rect id="SVGID_1_" x="-43.14" y="0.08" width="131" height="77"/>
	</defs>
	<clipPath id="SVGID_2_">
		<use xlink:href="#SVGID_1_"  style="overflow:visible;"/>
	</clipPath>
	<g class="st0">
		<path class="st1" d="M63.68-12.92c0.45,0,0.9,0,1.35,0c-0.06,0.04-0.08,0.1-0.02,0.16c0.09,0.09,0.22,0.13,0.34,0.18
			c2.65,1.08,5.29,2.2,7.89,3.39c3.16,1.45,6.3,2.95,9.38,4.57c3.01,1.58,6,3.19,8.93,4.9c2.83,1.66,5.63,3.39,8.36,5.22
			c3.01,2.02,5.95,4.14,8.76,6.43c2.11,1.72,4.16,3.51,6.12,5.4c1.79,1.72,3.49,3.53,5.06,5.45c1.14,1.38,2.2,2.82,3.18,4.31
			c1.15,1.75,2.16,3.58,3,5.51c0.62,1.42,1.17,2.86,1.56,4.36c0.47,1.81,0.78,3.64,0.94,5.51c0.03,0.37,0.08,0.73,0.1,1.1
			c0.01,0.11,0.01,0.28,0.22,0.18c0,2.87,0,5.74,0,8.61c-0.26-0.1-0.21,0.12-0.22,0.23c-0.03,0.74-0.14,1.47-0.19,2.21
			c-0.1,1.32-0.26,2.62-0.43,3.93c-0.3,2.28-0.64,4.55-1.06,6.81c-0.52,2.83-1.11,5.65-1.78,8.45c-1.14,4.79-2.43,9.54-3.86,14.25
			c-1.25,4.11-2.59,8.19-3.99,12.25c-1.68,4.87-3.48,9.69-5.36,14.49c-1,2.55-2.02,5.08-3.07,7.61c-0.94,2.29-1.91,4.57-2.9,6.85
			c-0.5,1.17-0.98,2.35-1.54,3.49c-0.58,1.17-1.34,2.2-2.39,2.99c-1.82,1.37-3.86,2.31-6,3.06c-1.92,0.67-3.88,1.18-5.85,1.64
			c-1.42,0.33-2.86,0.63-4.3,0.87c-1.84,0.31-3.68,0.57-5.53,0.8c-1.4,0.18-2.81,0.3-4.22,0.44c-1.04,0.11-2.09,0.15-3.13,0.22
			c-0.1,0.01-0.2,0-0.28,0.06c-0.06,0.05-0.06,0.11-0.01,0.16c-5.58,0-11.15,0-16.73,0c0.09-0.26-0.12-0.21-0.24-0.21
			c-0.95-0.03-1.89-0.12-2.84-0.2c-0.85-0.07-1.7-0.12-2.55-0.22c-1.48-0.18-2.97-0.34-4.45-0.54c-1.5-0.21-2.99-0.45-4.47-0.74
			c-2.59-0.5-5.16-1.09-7.68-1.88c-2.08-0.66-4.09-1.45-5.96-2.59c-1.84-1.12-3.2-2.62-3.99-4.63c-0.38-0.97-0.81-1.93-1.24-2.88
			c-1.23-2.78-2.39-5.59-3.54-8.41c-1.16-2.83-2.28-5.67-3.38-8.52c-1.65-4.28-3.21-8.59-4.71-12.92c-1.4-4.04-2.7-8.12-3.93-12.22
			c-0.87-2.9-1.69-5.81-2.45-8.73c-0.98-3.75-1.85-7.52-2.58-11.33c-0.28-1.48-0.54-2.97-0.78-4.46c-0.28-1.75-0.51-3.5-0.71-5.25
			c-0.19-1.69-0.38-3.39-0.47-5.09c-0.01-0.11,0.01-0.23-0.06-0.33c-0.04-0.06-0.1-0.06-0.16-0.02c0-2.8,0-5.61,0-8.41
			c0.25,0.07,0.21-0.12,0.22-0.25c0.07-1.12,0.23-2.24,0.4-3.35c0.24-1.59,0.61-3.16,1.13-4.68c0.74-2.15,1.7-4.21,2.84-6.18
			c1.98-3.42,4.4-6.51,7.1-9.37c2.54-2.68,5.27-5.16,8.13-7.49c2.72-2.22,5.54-4.31,8.45-6.28c3.12-2.12,6.32-4.1,9.58-5.99
			c3.05-1.77,6.15-3.46,9.29-5.06c3.08-1.57,6.2-3.08,9.36-4.5c1.88-0.84,3.76-1.67,5.67-2.45c0.48-0.19,0.96-0.38,1.43-0.58
			C63.56-12.68,63.8-12.67,63.68-12.92z M63.8,134.75c0.97,0,1.93,0,2.9,0c2.35-0.01,4.7-0.14,7.05-0.32
			c2.39-0.18,4.78-0.42,7.16-0.74c2.86-0.38,5.69-0.86,8.49-1.57c2.18-0.55,4.34-1.19,6.39-2.14c0.42-0.2,0.84-0.41,1.23-0.67
			c0.63-0.42,1.1-0.97,1.4-1.68c0.42-0.98,0.85-1.95,1.27-2.92c4.06-9.32,7.81-18.77,11.14-28.38c2.98-8.59,5.62-17.28,7.63-26.15
			c0.58-2.57,1.09-5.16,1.52-7.76c0.31-1.89,0.58-3.78,0.79-5.69c0.19-1.74,0.36-3.49,0.43-5.24c0.09-2.14,0.1-4.28-0.06-6.43
			c-0.08-1.08-0.17-2.15-0.34-3.22c-0.44-2.74-1.41-5.3-2.75-7.73c-1.82-3.3-4.16-6.2-6.74-8.92c-2.88-3.04-6.05-5.74-9.39-8.27
			C96.71,12.99,91.2,9.51,85.5,6.33c-6.06-3.38-12.3-6.39-18.66-9.15c-0.72-0.31-1.43-0.65-2.2-0.86c-0.25-0.07-0.46-0.06-0.7,0.04
			c-1.6,0.68-3.2,1.34-4.79,2.03c-9.04,3.96-17.71,8.59-25.95,14.02c-5,3.29-9.77,6.88-14.08,11.05c-2.52,2.44-4.83,5.05-6.8,7.96
			C11,33.37,9.89,35.41,9.04,37.6C8,40.28,7.66,43.08,7.52,45.92c-0.13,2.64-0.08,5.28,0.14,7.92c0.19,2.26,0.44,4.51,0.78,6.76
			c0.42,2.78,0.94,5.55,1.52,8.3c1.07,5.04,2.4,10.01,3.87,14.94c2.26,7.57,4.85,15.03,7.65,22.41c2.44,6.44,5.05,12.81,7.82,19.12
			c0.38,0.85,0.69,1.73,1.13,2.56c0.31,0.58,0.7,1.08,1.29,1.4c1.26,0.68,2.57,1.27,3.92,1.74c3.07,1.06,6.24,1.68,9.43,2.2
			c3.48,0.57,6.99,0.95,10.51,1.2C58.32,134.67,61.06,134.73,63.8,134.75z"/>
		<path class="st1" d="M88.71,96.24c0.58,0.21,1.15,0.39,1.68,0.67c2.95,1.55,4.79,3.94,5.37,7.24c0.17,0.97,0.13,1.96,0.04,2.94
			c-0.14,1.5-0.47,2.95-1.12,4.32c-1.34,2.8-3.56,4.5-6.55,5.24c-1.54,0.38-3.11,0.54-4.69,0.54c-5.51,0.01-11.02,0-16.53-0.01
			c-0.16,0-0.32,0-0.48-0.01c-0.88-0.07-1.47-0.71-1.47-1.6c0-4.43,0-8.86,0-13.29c0-0.59,0.08-0.53-0.55-0.53
			c-8.14,0-16.28,0-24.41,0c-2.29,0-4.58-0.02-6.86-0.04c-1.28-0.01-2-0.64-2.2-1.9c-0.05-0.35-0.06-0.7-0.04-1.06
			c0.04-0.63,0.03-1.26,0-1.88c-0.04-0.97-0.07-1.93,0.02-2.9c0.13-1.55,0.74-2.82,1.95-3.84c5.73-4.85,11.49-9.67,17.24-14.49
			c1.21-1.01,2.37-2.08,3.42-3.27c0.93-1.06,1.76-2.2,2.21-3.54c0.68-2.02,0.88-4.08,0.39-6.18c-0.48-2.04-1.74-3.45-3.63-4.3
			c-1.86-0.84-3.82-1.04-5.81-0.73c-1.56,0.24-2.81,1.08-3.88,2.2c-0.77,0.81-1.39,1.73-1.91,2.72c-0.24,0.46-0.48,0.91-0.72,1.37
			c-0.15,0.27-0.33,0.52-0.54,0.74c-0.41,0.43-0.9,0.64-1.51,0.58c-1.08-0.11-2.12-0.36-3.17-0.63c-0.93-0.24-1.87-0.49-2.8-0.74
			c-0.48-0.13-0.89-0.38-1.21-0.75c-0.44-0.51-0.59-1.08-0.35-1.74c0.64-1.75,1.51-3.38,2.6-4.88c2.14-2.94,4.85-5.18,8.23-6.57
			c1.51-0.62,3.08-1.02,4.71-1.14c1.89-0.15,3.77-0.16,5.64,0.12c4.74,0.71,8.68,2.84,11.6,6.69c1.4,1.84,2.24,3.94,2.64,6.21
			c0.95,5.44-0.33,10.34-3.65,14.73c-1.74,2.3-3.81,4.28-6.01,6.13c-3.11,2.61-6.23,5.21-9.39,7.75c-0.41,0.33-0.81,0.69-1.2,1.04
			c-0.13,0.12-0.26,0.25-0.36,0.39c-0.34,0.49-0.19,0.84,0.38,0.97c0.59,0.14,1.19,0.15,1.78,0.15c5.66-0.05,11.31-0.02,16.97-0.03
			c0.43,0,0.43,0,0.43-0.46c0-4.54,0-9.09-0.01-13.63c0-0.94,0.65-1.61,1.59-1.63c5.38-0.12,10.76-0.03,16.15-0.03
			c1.59,0,3.18,0.11,4.74,0.53c3.36,0.91,5.47,3.05,6.35,6.41c0.37,1.41,0.56,2.86,0.45,4.31c-0.27,3.55-1.99,6.15-5.25,7.67
			c-0.06,0.03-0.12,0.05-0.17,0.08C88.76,96.16,88.75,96.18,88.71,96.24z M78.86,110.38C78.86,110.38,78.86,110.39,78.86,110.38
			c1.51,0,3.03,0,4.54,0c0.92,0,1.74-0.31,2.47-0.85c1.26-0.94,2.01-2.21,2.27-3.75c0.42-2.51-1.07-4.7-3.54-5.3
			c-1-0.24-2.01-0.26-3.03-0.24c-1.76,0.02-3.51,0.05-5.27-0.01c-0.84-0.03-1.67,0.04-2.5,0.14c-0.6,0.07-0.91,0.42-1.11,0.93
			c-0.13,0.35-0.14,0.73-0.14,1.1c0.01,2.14-0.06,4.29,0.04,6.43c0.04,0.88,0.66,1.52,1.54,1.53
			C75.7,110.4,77.28,110.38,78.86,110.38z M78.2,93.47c1.37,0.03,2.67,0.03,3.97-0.03c2.04-0.1,3.33-1.19,4.05-3.04
			c0.3-0.76,0.36-1.56,0.31-2.37c-0.14-2.07-1.67-3.82-3.73-4.07c-0.34-0.04-0.67-0.08-1.01-0.07c-2.14,0.06-4.28,0.07-6.42,0
			c-0.55-0.02-1.09,0.08-1.63,0.19c-0.6,0.12-0.95,0.49-1.1,1.08c-0.06,0.25-0.09,0.51-0.09,0.76c-0.02,1.24-0.04,2.48-0.04,3.72
			c0,0.72,0.03,1.45,0.07,2.17c0.05,0.91,0.41,1.32,1.28,1.58c0.17,0.05,0.34,0.08,0.52,0.08C75.68,93.47,76.97,93.47,78.2,93.47z"
			/>
		<path class="st1" d="M26.01,32.42c0.62-0.43,1.23-0.71,1.9-0.85c3.29-0.71,6.59-1.36,9.9-1.91c2.3-0.38,4.61-0.71,6.93-1.02
			c2.25-0.29,4.51-0.53,6.77-0.74c3.06-0.28,6.14-0.46,9.21-0.56c2.35-0.07,4.7-0.07,7.06-0.04c2.14,0.03,4.28,0.13,6.42,0.26
			c3.04,0.19,6.07,0.47,9.09,0.81c2.01,0.23,4.02,0.53,6.03,0.81c3.22,0.46,6.41,1.05,9.6,1.69c1.18,0.24,2.37,0.44,3.53,0.77
			c0.56,0.16,1.09,0.38,1.59,0.69c-0.07,0.15-0.2,0.08-0.3,0.08c-1.26,0.06-2.51-0.11-3.76-0.23c-2.23-0.21-4.46-0.43-6.68-0.64
			c-1.67-0.15-3.34-0.3-5.01-0.43c-2.7-0.21-5.4-0.41-8.1-0.54c-2.16-0.1-4.31-0.22-6.47-0.33c-2.93-0.14-5.86-0.16-8.8-0.16
			c-2.97,0-5.93,0.06-8.89,0.17c-2.14,0.08-4.28,0.19-6.42,0.31c-3.28,0.19-6.56,0.44-9.83,0.71c-2.34,0.19-4.69,0.39-7.02,0.64
			c-1.63,0.17-3.27,0.35-4.9,0.49C27.28,32.46,26.69,32.42,26.01,32.42z"/>
		<path class="st1" d="M77.02,46.01c-0.09-0.3-0.16-0.51-0.21-0.73c-0.21-0.92-0.85-1.35-1.71-1.55c-0.92-0.21-1.79-0.01-2.65,0.27
			c-0.49,0.16-0.97,0.34-1.45,0.53c-0.18,0.07-0.26,0.03-0.33-0.13c-0.27-0.53-0.54-1.06-0.82-1.59c-0.09-0.17-0.07-0.25,0.1-0.33
			c1.83-0.87,3.72-1.43,5.78-1.06c1.99,0.35,3.57,2.08,3.7,4.1c0.14,2.22,0.12,4.44,0.05,6.66c-0.01,0.37-0.03,0.74-0.02,1.11
			c0,0.17-0.06,0.22-0.22,0.22c-0.69,0.02-1.39,0.01-2.07-0.14c-0.26-0.06-0.5-0.06-0.76,0c-1.09,0.26-2.18,0.4-3.3,0.22
			c-0.86-0.13-1.67-0.4-2.35-0.93c-1.11-0.87-1.46-2.09-1.31-3.44c0.11-1.01,0.52-1.9,1.34-2.54c0.78-0.6,1.66-0.97,2.66-1.04
			c1.02-0.07,2.02,0.07,3.02,0.26C76.62,45.95,76.79,45.97,77.02,46.01z M74.67,51.3c0.34-0.01,0.67-0.07,1.01-0.08
			c0.84-0.02,1.41-0.98,1.31-1.77c-0.06-0.47-0.3-0.8-0.75-0.98c-1.09-0.42-2.18-0.5-3.29-0.09c-0.6,0.22-0.94,0.73-0.95,1.37
			c-0.01,0.64,0.33,1.01,0.88,1.24C73.45,51.24,74.05,51.33,74.67,51.3z"/>
		<path class="st1" d="M75.05,58.39c-2-0.01-3.45-0.03-4.89-0.09c-0.56-0.02-0.77-0.21-0.84-0.78c-0.07-0.55,0.09-1.09,0.14-1.63
			c0.01-0.12,0.09-0.16,0.2-0.15c0.06,0,0.13,0,0.19,0c3.03-0.01,6.06-0.12,9.09,0.01c0.32,0.01,0.51,0.13,0.64,0.4
			c0.3,0.6,0.31,1.2-0.01,1.8c-0.14,0.26-0.34,0.37-0.66,0.38C77.43,58.32,75.97,58.37,75.05,58.39z"/>
		<path class="st1" d="M48.51,20.82c-0.11,0.88-0.09,1.72-0.12,2.56c-0.01,0.33-0.02,0.34-0.35,0.34c-0.34,0-0.68-0.01-1.01-0.01
			c-0.18,0-0.27-0.06-0.26-0.25c0-0.06,0-0.13,0-0.19c0-2,0-4,0-5.99c0-0.4,0-0.39,0.38-0.4c0.66,0,1.32-0.02,1.98-0.01
			c0.57,0,1.12,0.08,1.65,0.31c0.78,0.33,1.25,1.04,1.22,1.8c-0.01,0.33-0.14,0.63-0.3,0.9c-0.14,0.24-0.32,0.44-0.51,0.64
			c-0.15,0.16-0.43,0.27-0.42,0.49c0.01,0.2,0.2,0.39,0.31,0.59c0.35,0.58,0.7,1.16,1.04,1.74c0.06,0.1,0.17,0.2,0.13,0.37
			c-0.56,0-1.11,0-1.67,0c-0.21,0-0.26-0.17-0.33-0.31c-0.4-0.77-0.85-1.51-1.38-2.21C48.78,21.07,48.7,20.93,48.51,20.82z
			 M48.4,19.93c0.49-0.09,0.92-0.14,1.34-0.24c0.41-0.1,0.63-0.37,0.62-0.69c0-0.27-0.25-0.53-0.63-0.64
			c-0.37-0.11-0.76-0.11-1.14-0.14c-0.15-0.01-0.19,0.06-0.19,0.2C48.4,18.91,48.4,19.4,48.4,19.93z"/>
		<path class="st1" d="M69.48,23.72c-0.66,0-1.32,0-1.98,0c-0.35,0-0.36-0.01-0.36-0.33c0-2.06,0-4.12,0-6.19
			c0-0.33,0.01-0.33,0.36-0.33c1.29,0,2.58,0,3.87,0c0.35,0,0.35,0.01,0.35,0.34c0,0.26,0,0.52,0,0.77
			c-0.01,0.33-0.01,0.33-0.36,0.33c-0.74,0-1.48,0-2.22,0c-0.4,0-0.41,0-0.4,0.38c0,0.27-0.11,0.61,0.05,0.8
			c0.17,0.2,0.51,0.07,0.78,0.07c0.56,0.01,1.13,0.01,1.69,0c0.2,0,0.29,0.06,0.28,0.27c-0.01,0.27-0.01,0.55,0.01,0.82
			c0.01,0.22-0.08,0.27-0.28,0.27c-0.72,0-1.45,0.01-2.17,0.02c-0.37,0.01-0.37,0.01-0.37,0.38c0,0.21,0.02,0.42,0,0.63
			c-0.02,0.25,0.07,0.34,0.32,0.33c0.72-0.01,1.45,0,2.17,0c0.11,0,0.23,0.01,0.34,0c0.27-0.03,0.33,0.1,0.32,0.34
			c-0.02,0.26-0.02,0.52,0,0.77c0.01,0.25-0.06,0.34-0.32,0.34C70.87,23.71,70.17,23.72,69.48,23.72z"/>
		<path class="st1" d="M77.18,20.21c0-1,0-2,0-2.99c0-0.34,0.01-0.35,0.34-0.35c1.27,0,2.54,0,3.82-0.01c0.25,0,0.34,0.07,0.33,0.33
			c-0.02,0.29-0.01,0.58,0,0.87c0.01,0.22-0.08,0.27-0.28,0.27c-0.72-0.01-1.45-0.01-2.17,0c-0.37,0-0.38,0.01-0.38,0.37
			c0.01,0.32-0.13,0.72,0.06,0.93c0.2,0.22,0.61,0.04,0.92,0.05c0.45,0.02,0.9,0.01,1.35,0c0.23-0.01,0.31,0.09,0.3,0.32
			c-0.02,0.26-0.02,0.52-0.01,0.77c0.01,0.25-0.07,0.34-0.33,0.33c-0.58-0.02-1.16,0-1.74,0c-0.08,0-0.16,0-0.24,0
			c-0.32,0.01-0.33,0.01-0.33,0.36c0,0.6,0.01,1.19,0.01,1.79c0,0.46,0,0.47-0.44,0.47c-0.29,0-0.58,0-0.87-0.02
			c-0.37-0.03-0.37-0.03-0.37-0.4c0-1.03,0-2.06,0-3.09C77.17,20.21,77.17,20.21,77.18,20.21z"/>
		<path class="st1" d="M57.38,20.25c0-1.01,0-2.03,0-3.04c0-0.33,0.01-0.34,0.35-0.34c1.26,0,2.51,0,3.77,0.01
			c0.35,0,0.35,0.01,0.36,0.34c0,0.29-0.01,0.58,0,0.87c0.01,0.19-0.07,0.25-0.26,0.25c-0.63,0-1.26,0-1.88,0.01
			c-0.13,0-0.26,0.01-0.39,0c-0.22-0.02-0.34,0.05-0.32,0.29c0.03,0.34-0.13,0.75,0.06,0.99c0.2,0.25,0.63,0.07,0.96,0.08
			c0.45,0.01,0.9,0.01,1.35,0c0.18,0,0.26,0.06,0.26,0.25c-0.01,0.26,0,0.51,0,0.77c0,0.37,0,0.38-0.36,0.38c-0.61,0-1.22,0-1.83,0
			c-0.45,0-0.43-0.03-0.43,0.41c0,0.63-0.01,1.26,0.01,1.88c0.01,0.24-0.06,0.35-0.32,0.34c-0.34-0.02-0.68-0.02-1.01,0
			c-0.27,0.02-0.32-0.1-0.32-0.34C57.39,22.34,57.38,21.3,57.38,20.25z"/>
	</g>
</g>
</svg>
