<?xml version="1.0" encoding="utf-8"?>
<!-- Generator: Adobe Illustrator 24.1.3, SVG Export Plug-In . SVG Version: 6.00 Build 0)  -->
<svg version="1.1" id="Layer_1" xmlns="http://www.w3.org/2000/svg" xmlns:xlink="http://www.w3.org/1999/xlink" x="0px" y="0px"
	 viewBox="0 0 175 233" style="enable-background:new 0 0 175 233;" xml:space="preserve">
<style type="text/css">
	.st0{fill:#FFFFFF;}
</style>
<g>
	<path class="st0" d="M11.8,104.7c-3.2,0-6.3,0-9.6,0c0-7.9,0-15.8,0-23.6c4.7,0,9.4,0,14.3,0c0,1.8,0,3.6,0,5.5c2.3,0,4.4,0,6.5,0
		c0.3,0,0.4-0.3,0.7-0.4c3.4-3.5,6.6-7,10.1-10.7c-0.3-0.5-0.8-1.2-1.2-1.9c-0.8-1.9-0.3-3.7,1-5.2c0.6-0.7,0.7-1.2,0.2-1.9
		c-1.4,0.3-2.9,0.5-4.4,0.9c-0.9,0.3-1.5-0.1-2-0.8c-0.5-0.7-0.1-1.3,0.3-1.9c0.9-1.1,1.8-2.3,2.7-3.4c-0.3-0.5-0.5-0.9-0.8-1.5
		c-0.6,0.3-1.1,0.7-1.7,0.9c-3.5,1.8-7.6-0.7-7.6-4.6c0-1.3,0.7-2.3,1.6-3.1c0.3-0.3,0.6-0.5,1-0.8c-0.3-0.2-0.5-0.3-0.8-0.4
		c-2.2-0.9-4.1-2.3-5.6-4.1c-0.4-0.5-0.8-0.6-1.4-0.3c-0.7,0.3-1.4,0.5-2.1,0.7c-3.2,0.8-6.2-1.3-6.4-4.6c-0.1-2.2-0.1-4.4,0-6.5
		c0.2-3.2,2.6-5.3,6-5.1c0.8,0,1.7,0.4,2.5,0.6c0.6,0.1,1.3,0.3,1.8,0.1c2.6-0.8,4.9-0.4,6.7,1.7c1.9,2.3,2.2,4.8,1.2,7.6
		c-0.1,0.2-0.1,0.3-0.2,0.5c1.3,0.9,2.7,0.7,3.9,0c1.5-0.8,2.2-2.2,2.3-3.8c-6-1.8-8.4-5.6-6.9-10.7c1.3-4.2,5.7-6.3,10.2-5
		c3.7,1.1,7,5.4,4.5,11.7c1.4,0.4,2.8,1.1,4.3,1.3c2,0.3,4-1.6,4-3.6c0-0.2-0.3-0.4-0.4-0.5c-0.7-0.4-1.3-0.9-2-1.3
		c-0.4-0.3-0.8-0.4-1.3-0.5c-2-0.4-3.4-1.5-3.9-3.5c-0.3-1.2-0.8-2.3-1.2-3.5c-0.5-1.7-0.2-3.1,0.8-4.4c0.4-0.5,0.8-1.1,0.8-1.8
		c0.4-2,1.5-3.3,3.4-3.9c1.3-0.4,2.5-0.8,3.7-1.3c1.6-0.5,3-0.1,4.3,0.9c0.5,0.4,1.2,0.7,1.8,0.8c1.8,0.4,3.2,1.4,3.8,3.2
		c0.4,1.3,0.8,2.6,1.3,3.9c0.5,1.6,0.1,3-0.9,4.4c-0.4,0.5-0.6,1.3-0.9,1.8c-0.4,0.9-0.8,1.8-1.2,2.8c3.2,3.3,6.6,2.1,8.2-1
		c0.1-0.2,0.2-0.4,0.3-0.7c0.8-1.8,0.8-1.8-0.8-2.7c-2.9-1.8-4.3-5.5-3.4-9.1c0.8-3.4,3.7-5.6,7.1-5.7c3.7-0.2,6.5,1.4,7.8,4.4
		c1.4,3,0.9,7.1-1.6,9.5c-0.1,0.1-0.1,0.2-0.3,0.3c1.5,1.8,3.1,3.4,5.6,3.4c2.6-0.1,3.7-2.3,5-4.2c-1.4-0.6-2.2-1.7-2.8-3
		c-0.1-0.3-0.5-0.6-0.8-0.7c-1.8-0.7-3-2-3.1-3.9c-0.1-2.1-0.1-4.1,0.1-6.2c0.2-1.8,1.3-2.9,2.9-3.6c0.3-0.1,0.8-0.4,0.8-0.8
		C81.2,3,82.8,2,85,1.9c2-0.1,4,0,6,0.2c1.6,0.2,2.7,1.2,3.3,2.7c0.3,0.7,0.7,1.1,1.3,1.3c1.7,0.6,2.7,1.9,2.8,3.7
		c0.2,2.1,0.1,4.2-0.1,6.3c-0.2,1.8-1.3,3-3,3.7c-0.3,0.1-0.8,0.3-0.8,0.7c-0.4,1.5-1.3,2.5-2.9,3.2c0.8,1.5,1.8,2.9,3.4,3.7
		c0.8,0.3,1.7,0.4,2.5,0.3c1.9-0.4,3.4-1.6,4.5-3.1c-4.1-3.9-3.1-10.2,0.3-12.7c3.7-2.8,9.2-2,11.7,1.7c2.9,4.1,1.4,9.1-3.5,12.3
		c0.8,2.1,1.4,4.3,3.8,5.2c2.3,0.8,4-0.5,5.5-1.8c-0.3-1.2-0.6-2.2-0.9-3.2c-0.1-0.3-0.3-0.8-0.6-1c-1.3-1.3-1.7-2.9-1.1-4.6
		c0.4-1.3,0.9-2.7,1.4-4.1c0.6-1.7,1.8-2.6,3.4-2.9c0.8-0.2,1.5-0.4,2.2-1c1.1-1,2.4-1.3,3.9-0.9c1.7,0.5,3.3,1.1,5,1.7
		c1.3,0.6,2.1,1.7,2.3,3.2c0.2,0.8,0.4,1.6,1.1,2.3c1.1,1.2,1.3,2.6,0.8,4s-0.9,2.8-1.4,4.2c-0.6,1.8-1.9,2.7-3.7,3
		c-0.6,0.2-1.2,0.5-1.8,0.8c-0.8,0.4-1.7,0.8-2.6,1.3c0.4,3.2,3,4.5,6,3.1c0.8-0.4,1.7-0.8,2.4-1.3c-1.3-6.5,0.6-10.3,5.7-11.5
		c4.2-0.9,8.5,1.6,9.5,5.7c0.6,2.5,0.3,4.9-1.3,7c-1.5,2.1-3.7,3-6.2,3.1c0.4,3.5,3.7,5.6,6,4.3c-0.1-1.7-0.4-3.3-0.3-4.8
		c0.5-4.3,4.3-6.5,8.4-5.2c0.4,0.2,1,0.1,1.4-0.1c1.9-0.8,3.9-0.8,5.9,0c1.9,0.8,2.9,2.3,3,4.5c0,2.2,0.1,4.4,0,6.5
		c-0.1,3.9-4.1,6.1-7.9,4.3c-1-0.5-1.5-0.3-2.2,0.4c-0.8,0.9-1.8,1.8-2.8,2.4c-1,0.7-2.2,1.2-3.4,1.8c1.4,1,2.9,2.2,2.9,4.1
		c0,1-0.3,2.1-0.8,2.9c-1.6,2.5-3.8,2.8-8,1.2c-0.3,0.3-0.7,0.7-1.1,1c0.9,1.1,1.8,2.2,2.6,3.3c0.5,0.7,0.8,1.3,0.3,2.1
		c-0.5,0.8-1.2,0.8-1.9,0.7c-1.3-0.3-2.7-0.5-4-0.8c-0.5,0.7-0.4,1.3,0.1,1.8c1,1.2,1.8,2.4,1.7,4.1c-0.1,1.5-0.8,2.7-2,3.6
		c0.2,0.2,0.3,0.3,0.4,0.5c2.9,3,6,6.1,8.9,9.1c0.4,0.5,0.8,0.8,1.5,0.8c1.8-0.1,3.7,0,5.6,0c0-1.9,0-3.7,0-5.5c4.8,0,9.5,0,14.3,0
		c0,7.8,0,15.6,0,23.6c-3.1,0-6.2,0-9.6,0c0.2,0.5,0.3,0.8,0.4,1.1c5.5,12.5,7.6,25.7,6.7,39.3c-2.4,36-28.5,66.7-63.7,75
		c-4.8,1.2-9.6,1.8-14.6,2.1c-0.7,0-1,0.3-1.3,0.8c-1.1,2.5-2.2,5-3.4,7.7c-0.3-0.6-0.4-1-0.7-1.4c-0.9-2.1-1.8-4.2-2.8-6.4
		c-0.3-0.6-0.6-0.8-1.2-0.8c-15.8-0.9-30.3-5.7-43.1-14.9c-18.5-13.1-30-30.8-34.2-53.1C2.3,137.8,4.3,121.6,11,106
		c0.1-0.3,0.2-0.4,0.3-0.7C11.9,105,11.8,104.9,11.8,104.7z M87.5,162.4c0-20.5,0-40.9,0-61.3c-17.9,0-35.7,0-53.4,0
		c17.8,41,35.5,82,53.1,122.9c0.1,0,0.2-0.1,0.3-0.1c0-10.7,0-21.4,0-32.1c-9.4-1.1-14.6-8.2-13.9-15.9
		C74.2,168.8,78.9,163.3,87.5,162.4z M93.2,218.6c0.7,0,1.3,0.1,1.8,0c3.4-0.5,7-0.8,10.3-1.7c19.5-4.5,35.2-14.9,47-30.9
		c9-12.2,13.9-25.9,15.1-41c0.4-5.6,0.3-11.2-0.5-16.8c-1.1-7.9-3.3-15.5-6.6-22.7c-0.3-0.5-0.7-0.8-0.9-1.1
		c-0.5-1.3-0.8-2.4-1.4-3.5c-0.8-1.4-1.7-2.8-2.4-4.2c-0.3-0.7-0.8-0.8-1.5-0.8c-4.9,0-9.8,0-14.7,0c-0.3,0-0.7,0-1,0.1
		c0,1.3,0,2.5,0,3.9c2.1,0,4.1,0,6.2,0c-0.2,0.4-0.3,0.7-0.4,0.9c-1.9,4.5-3.9,9-5.9,13.5c-0.3,0.7-0.3,1.2,0,1.8
		c4.9,10.7,6.4,22,3.9,33.6c-4.4,20.6-16.8,34.6-36.5,42c-0.7,0.3-1,0.6-1.3,1.2c-2.9,6.9-6,13.8-8.9,20.6
		C94.8,215.1,94,216.9,93.2,218.6z M16.1,104.7c-0.2,0.2-0.6,0.5-0.8,1c-4.4,9.6-6.8,19.6-7.3,30c-0.3,7.1,0.3,14.2,1.9,21.1
		c6.1,24.9,20.7,43,43.7,54.4c7.4,3.6,15.2,5.8,23.3,7c1.8,0.3,3.7,0.3,5.6,0.6c-0.1-0.3-0.1-0.4-0.2-0.6c-3.7-8.6-7.4-17-11.1-25.6
		c-0.2-0.3-0.6-0.8-1-0.8c-7-2.3-13.3-5.8-18.7-10.7c-12-10.6-18.5-23.8-19.3-39.8c-0.4-9,1.3-17.5,5.1-25.7c0.2-0.4,0.3-1.1,0-1.6
		c-0.8-2.1-1.8-4.1-2.7-6.2c-1.2-2.7-2.3-5.3-3.5-8.1c2,0,3.9,0,5.8,0c0-1.3,0-2.5,0-3.7c-0.2,0-0.3-0.1-0.3-0.1
		c-5.2,0-10.5,0-15.7,0c-0.3,0-0.8,0.3-0.9,0.6c-0.9,1.5-1.9,3.1-2.8,4.7C17,102.3,16.6,103.3,16.1,104.7z M128.8,85.6
		c3.2,0,6.4,0,9.5,0c0.1,0.4,0.1,0.8,0.2,1c3.2,0,6.3,0,9.5,0c-11.9-14.3-35.1-29.1-65-27.2c-22,1.4-40.3,10.7-55.3,27.2
		c3.4,0,6.5,0,9.6,0c0-0.4,0.1-0.8,0.1-1.1c3.2,0,6.3,0,9.5,0c0.1,0.4,0.1,0.7,0.2,1.2c0.4,0,0.8,0,1.2,0c6.7,0,13.3,0,20.1,0
		c0.9,0,1.8-0.2,2.8-0.4c4.2-1.3,8.5-2.2,12.8-2.5c7.3-0.5,14.4,0.3,21.4,2.6c0.7,0.3,1.3,0.3,2.1,0.3c6.7,0,13.5,0,20.2,0
		c0.3,0,0.8,0,1.1,0C128.7,86.3,128.7,86,128.8,85.6z M39.8,119.1c-5.2,11.6-6.3,29.3,2.3,44.8c6.1,11.2,15.2,19,27,23.8
		c0.1-0.1,0.2-0.2,0.3-0.3C59.5,164.8,49.7,142,39.8,119.1z M136,119.5c-9.9,22.8-19.6,45.4-29.5,68.1
		C134.5,177,146.8,145.3,136,119.5z M165.8,40L165.8,40c-0.1-1-0.1-2-0.1-3c0-0.8-0.4-1.4-1.2-1.8c-1.5-0.9-3.1-0.5-3.9,1.1
		c-0.4,0.8-0.8,0.8-1.4,0.3s-1.2-0.8-1.8-1.2c-0.9-0.5-1.8-0.3-2.7,0.3c-1.8,1.4-2,4.2-0.3,5.8c0.9,0.8,0.9,1.1,0.1,2
		c-2.1,2.2-4.7,2.9-7.6,2.1c-2.9-0.8-4.7-2.9-5.2-5.8c-0.3-1.5-0.8-2.5-2.2-3.2c-0.5-0.2-0.8-0.3-1.3,0c-1.1,0.6-2.3,1.2-3.4,1.6
		c-4.2,1.3-7.6-0.2-9.2-4.1c-0.3-0.8-0.5-1.6-0.7-2.4c-0.1-0.6-0.3-1-0.9-1c-0.4,0-0.8,0.1-1.2,0.3c-0.3,0.2-0.5,0.5-0.8,0.7
		c-2.1,1.8-4.4,2.9-7.3,2.4c-3.9-0.8-5.8-3.4-6.8-7c-0.1-0.4-0.4-1-0.7-1c-0.8,0-1.8-0.8-2.5,0.3c-1.1,1.5-2.5,2.6-4.3,3.4
		c-3.4,1.6-6.3,1.1-8.9-1.6c-1-1.1-1.8-2.4-2.7-3.6C88.7,24.4,88.4,24,88,24c-0.6-0.1-1.3-0.3-1.6,0.6c-0.5,1.1-1.2,2.1-1.9,3.1
		c-2.1,2.7-5.4,4-9.1,2.4c-1.9-0.8-3.6-2.1-4.9-3.8c-0.7-0.9-1.5-0.1-2.2-0.2c-0.3,0-0.6,0.4-0.7,0.8c-0.6,1.3-1,2.7-1.8,3.8
		c-1.8,2.8-4.4,4-7.9,3.4c-2-0.4-3.8-1.4-5.2-2.9c-0.4-0.4-0.8-0.4-1.4-0.3c-1.2,0.3-1,1.2-1.2,1.9c-0.9,4.2-3.7,6.5-7.8,5.9
		c-1.7-0.3-3.3-1.2-5-1.8c-0.3-0.1-0.7-0.3-0.8-0.3c-1.2,0.7-2.9,0.9-2.7,2.9c0,0.1,0,0.2,0,0.3c-1.4,6.1-8.3,7.8-12.3,4.4
		c-1.5-1.3-1.6-1.4-0.3-3c1.2-1.4,1.2-3.4-0.2-5c-1.2-1.3-2.3-1.4-4.2-0.3c-0.2,0.2-0.4,0.3-0.6,0.4c-1.2,0.8-1.2,0.8-1.9-0.3
		c-0.7-1.1-1.6-1.4-2.9-1.1c-1.3,0.3-2,1-2,2.3c-0.1,1.9-0.1,3.9,0,5.9c0.1,1.4,0.9,2.1,2.3,2c1.2-0.1,2-0.8,2.7-1.7
		c0.8-1.2,0.9-1.2,1.9-0.1c1.1,1.2,2.2,2.3,3.4,3.5c3.2,3.3,9.8,3.9,13.4,0.4c1.5-1.5,2.7-3.3,3.5-5.2c0.4-0.9,0.9-1.2,1.8-0.9
		c1.6,0.4,3.2,0.8,4.8,1c3.9,0.4,7-1,8.1-5c0.1-0.4,0.3-0.8,0.4-1.3c0.4-1.3,0.6-1.3,1.7-0.7c1.8,1.2,3.8,1.8,5.9,1.9
		c4.7,0.1,8.5-1.7,10.5-6.2c0.3-0.6,0.7-0.8,1.2-0.3c0.3,0.3,0.4,0.4,0.7,0.7c3.4,3.4,8.6,3.9,12.5,1c1.1-0.8,1.8-1.9,2.7-2.9
		c0.6-0.7,0.9-0.8,1.5,0c0.2,0.3,0.3,0.5,0.5,0.8c2.5,3.4,5.9,4.5,9.9,3.9c2.1-0.3,3.8-1.6,5.3-3c0.8-0.8,1-0.7,1.4,0.3
		c0.3,0.5,0.5,1.1,0.8,1.6c3.4,4.7,9.7,5.9,14.9,2.8c1.8-1,1.8-1,2.3,0.8c1.3,4.3,3.5,6,8,5.7c1.8-0.1,3.4-0.6,5.2-1
		c1.3-0.3,1.4-0.3,1.9,0.9c0.5,1,0.9,2,1.6,2.9c1.8,2.4,3.8,4.4,7,4.6c3.4,0.2,6.3-0.5,8.6-3.1c1.1-1.2,2.2-2.3,3.3-3.5
		c0.6-0.6,0.9-0.6,1.5,0.2c0.5,0.7,1.1,1.3,1.8,1.7c1.8,0.9,3.4-0.1,3.4-2C165.8,41.8,165.8,40.8,165.8,40z M38.3,58.9
		c0.3,0.3,0.8,0.5,1.2,0.9c0.4,0.6,0.2,1.2-0.3,1.8c-0.8,0.9-1.7,1.9-2.6,2.9c-0.8,0.8,0.1,1.2,0.3,1.7c0.3,0.6,0.8,0.4,1.2,0.2
		c3.7-2,7.4-4.1,11.2-6c11.2-5.4,23.1-8.4,35.5-8.7c7-0.2,14,0,20.9,1.5c11.6,2.6,22.5,6.9,32.5,13.3c0.5,0.3,0.8,0.5,1.3-0.1
		c0.3-0.5,0.8-0.8,0.1-1.5c-1-0.9-1.9-2-2.7-3.1c-0.3-0.4-0.3-1.3-0.2-1.6c0.3-0.4,0.9-0.8,1.4-0.8c1.2,0,2.4,0.3,3.6,0.4
		c1.6,0.3,1.6,0.3,2.3-1.2c0.3-0.7,0.3-1-0.4-1.4c-15.2-8.9-31.5-14.5-49.1-16c-9.1-0.8-18-0.2-26.8,1.8c-12,2.7-23.3,7-34.2,13
		c-1.9,1.1-1.9,1-0.9,3c0.3,0.7,0.8,0.8,1.4,0.7C35.4,59.3,36.6,59.1,38.3,58.9z M90.6,36.6c-9.6-0.1-16.2,0.6-23.1,1.8
		C55,40.8,43.2,44.9,31.8,50.6c-2.7,1.3-5.2,3.1-7.8,4.7c-1.1,0.7-1,1.5,0,2.3c0.9,0.7,1.8,0.5,2.8-0.1c6.2-3.7,12.6-7,19.3-9.8
		c11.7-4.7,23.5-8.1,36.1-8.9c6.5-0.4,13.1-0.1,19.6,0.9c6.3,0.9,12.3,2.6,18.3,4.5c8.6,2.8,16.9,6.6,24.7,11.2
		c1.6,0.9,3.2,1.8,4.8,2.8c1,0.5,2.3,0.2,2.9-0.8c0.4-0.8,0.2-1.5-0.8-2.3c-0.8-0.5-1.4-1-2.2-1.4c-6-3.3-12.1-6.4-18.5-8.8
		C116.7,39.7,102.5,36.5,90.6,36.6z M87.8,56.2c8.3,0.1,16.4,1.3,24.2,4c6.5,2.3,13.1,4.5,19,8.3c2.6,1.6,5.1,3.3,7.7,5
		c1.3,0.8,2.7,0.2,2.7-1.2c0-0.6-0.3-1.3-0.8-1.6c-1.1-1-2.3-1.8-3.5-2.7c-13.1-8.6-27.5-13.1-43-14.6c-5.7-0.5-11.4-0.2-17,0.5
		c-5.5,0.6-10.7,1.9-15.9,3.6c-8.6,2.8-16.8,6.5-24.2,11.7c-0.6,0.4-1.1,1-1.7,1.6c-0.7,0.8-0.4,1.5,0.2,2.1
		c0.7,0.7,1.3,0.7,2.1,0.2c0.5-0.3,0.9-0.7,1.3-1c7.3-4.7,14.9-8.7,23.2-11.4C70.6,58,79,56.1,87.8,56.2z M92.2,8.6
		c0-0.7,0-1.2,0-1.7c-0.1-1.4-0.8-2.1-2.3-2.1c-1.3,0-2.7,0-4,0c-1.4,0-2.1,0.8-2.2,2.2c0,0.5,0,1,0,1.6c-0.6,0-1,0-1.4,0
		c-1.6,0-2.4,0.8-2.4,2.3c0,1.2,0,2.3,0,3.5c0,1.8,0.8,2.5,2.6,2.6c0.4,0,0.8,0,1.3,0c0,0.6,0,1,0,1.4c0,1.5,0.6,2.3,2.1,2.3
		c1.4,0.1,2.9,0.1,4.2,0c1.4-0.1,2-0.8,2.1-2.2c0-0.5,0-1,0-1.6c0.6,0,0.9,0,1.3,0c1.6,0,2.3-0.7,2.4-2.3c0.1-1.4,0-2.9-0.1-4.3
		c-0.1-1.2-0.8-1.8-2.1-1.8C93.3,8.5,92.8,8.6,92.2,8.6z M14.4,102.3c0-6.5,0-12.8,0-19.1c-3.3,0-6.5,0-9.7,0c0,6.5,0,12.8,0,19.1
		C7.9,102.3,11.1,102.3,14.4,102.3z M161.1,83.1c0,6.5,0,12.8,0,19.2c3.3,0,6.5,0,9.7,0c0-6.5,0-12.8,0-19.2
		C167.7,83.1,164.4,83.1,161.1,83.1z M128.7,88.7c-10.4,0-20.8,0-31.2,0c0,1.7,0,3.3,0,5c10.4,0,20.8,0,31.2,0
		C128.7,92.1,128.7,90.5,128.7,88.7z M46.8,93.7c10.4,0,20.8,0,31.2,0c0-1.7,0-3.3,0-5c-10.4,0-20.8,0-31.2,0
		C46.8,90.5,46.8,92.1,46.8,93.7z M123.5,16.2c-0.8-0.1-1.3,0.3-1.7,1c-0.5,1.2-0.9,2.3-1.3,3.6c-0.4,1.3-0.1,1.9,1.2,2.3
		c0.9,0.3,1.2,0.8,0.8,1.8c-0.4,1.3-0.1,1.9,1.2,2.4c1.1,0.4,2.1,0.8,3.2,1.2c1.3,0.4,2,0.2,2.5-1.2c0.3-0.9,0.8-1.1,1.7-0.8
		c1.3,0.4,2,0.1,2.5-1.2c0.4-1.1,0.8-2.1,1.2-3.2c0.4-1.3,0.1-2-1.1-2.5c-0.8-0.3-1.2-0.8-0.8-1.8c0.4-1.3,0.1-2-1.3-2.5
		c-1.1-0.4-2.1-0.8-3.2-1.2c-0.8-0.3-1.6-0.3-2.2,0.5C125.3,16.2,125,16.2,123.5,16.2z M41,21c0.5,1.5,0.9,2.9,1.4,4.1
		c0.6,1.5,1.2,1.8,2.6,1.3c0.8-0.3,1.3-0.2,1.7,0.8c0.4,1.3,1.3,1.6,2.6,1.2c1-0.3,1.9-0.7,2.9-1c1.4-0.5,1.8-1.2,1.3-2.7
		c-0.3-0.9-0.1-1.3,0.8-1.5c1.3-0.5,1.7-1.3,1.3-2.6c-0.3-1-0.8-2.1-1.1-3.1c-0.5-1.3-1.2-1.7-2.5-1.3c-1,0.3-1.4,0.1-1.8-0.8
		c-0.5-1.3-1.1-1.5-2.3-1.1c-1.1,0.3-2.2,0.8-3.3,1.2c-1.2,0.5-1.7,1.2-1.3,2.3c0.4,1.2,0,1.6-1,2C41.7,19.9,41.4,20.5,41,21z
		 M37.9,30.2c0-3.5-2.5-6-6-6c-3.5,0-6,2.5-6,6c0,3.5,2.4,6,6,6C35.4,36.2,37.8,33.7,37.9,30.2z M101.8,18.1c0,3.5,2.4,6,6,6
		c3.5,0,6-2.5,6-6c0-3.4-2.6-6-6-6C104.3,12.1,101.8,14.6,101.8,18.1z M61.6,18.1c0,3.5,2.5,6,6,6c3.5,0,6-2.5,6-6
		c-0.1-3.4-2.6-6-6-6C64.1,12.1,61.6,14.7,61.6,18.1z M144.2,36c3.5,0,6-2.5,6-6c0-3.4-2.6-6-6-6c-3.4,0-6,2.6-6,6
		C138.1,33.7,140.6,36,144.2,36z M159,93.7c0-1.7,0-3.4,0-5c-6.9,0-13.8,0-20.6,0c0,1.7,0,3.3,0,5C145.3,93.7,152.2,93.7,159,93.7z
		 M16.6,88.7c0,1.7,0,3.3,0,5c7,0,13.8,0,20.6,0c0-1.7,0-3.3,0-5C30.3,88.7,23.5,88.7,16.6,88.7z M87.5,190.3
		c0.1,0.1,0.1,0.2,0.1,0.3c0.8-0.4,1.9-0.7,2.6-1.3c3.3-3.3,6-8.1,3.8-13.6c-0.2-0.4-0.6-0.9-1-1c-1.8-0.3-5.1,1.3-4.9,3.9
		c0.2,1.9-0.6,3.4-1.8,4.8c-0.4,0.4-0.4,1.2-0.6,1.8c-0.2,0.8,0,1.8-0.3,2.6c-0.8,2.2-0.8,2.2,1.5,2.4
		C87,190.4,87.3,190.3,87.5,190.3z M82.7,172.9c0.3,1.8,1.3,2.9,2.7,3.8c1,0.7,1.5,0.6,2.2-0.4c1.2-1.8,2.9-2.7,5.1-2.9
		c0.3,0,0.8,0,1-0.3c1.3-1.4,2.9-2.3,4.9-2.7c0.6-0.2,0.8-0.6,0.5-1.1c-0.8-1.1-1.5-2.3-3-2.3c-1.8-0.1-3.5-0.3-5.2,0.1
		c-2.9,0.4-5.5,1.6-7.3,4C83.2,171.7,82.9,172.4,82.7,172.9z M88.8,98.6c2.6,0,5.1,0,7.6,0c0-4,0-8,0-11.9c-2.5,0-5,0-7.6,0
		C88.8,90.6,88.8,94.5,88.8,98.6z M137.3,92.6c0-1.7,0-3.3,0-5c0-0.8-0.2-1.2-1.1-1.1c-1.8,0.1-3.8,0.1-5.6,0c-0.8,0-1,0.2-1,0.9
		c0,3.4,0,6.8,0,10.2c0,0.8,0.3,1,1,0.9c1.8,0,3.8-0.1,5.6,0c0.9,0,1.1-0.3,1.1-1.1C137.3,95.9,137.3,94.2,137.3,92.6z M121.7,99.7
		c0.1-0.1,0.1-0.2,0.2-0.3c-1.3-1-2.5-2-3.9-2.9c-0.5-0.3-1.2-0.6-1.8-0.6c-5.9-0.1-11.7,0-17.6,0c-0.3,0-0.7,0-1,0.1
		c0,1.3,0,2.5,0,3.8C105.6,99.7,113.6,99.7,121.7,99.7z M78.1,96c-0.4,0-0.8,0-1.2,0c-4.7,0-9.3,0-14,0c-4.9,0-4.9,0-8.6,3.3
		c-0.2,0.2-0.3,0.3-0.4,0.6c8.1,0,16.1,0,24.2,0C78.1,98.5,78.1,97.3,78.1,96z M92.2,189.3c0.1,0.1,0.2,0.2,0.3,0.3
		c0.3-0.1,0.7-0.1,1-0.3c6.4-2.8,9.9-10.2,7.1-17c-0.3-0.6-0.7-0.9-1.3-0.8c-1.3,0.5-2.5,1-3.8,1.6c-0.8,0.4-0.9,1.2-0.5,2
		c0.3,0.7,0.6,1.3,0.8,2.1c0.8,4-0.4,7.6-2.8,10.8C92.7,188.3,92.4,188.8,92.2,189.3z M87,179.7c-0.1,0-0.2-0.1-0.3-0.1
		c0.3-0.8-0.3-1.2-1-1.4c-1.7-0.7-3-1.8-3.9-3.5c-0.2-0.4-0.6-0.7-1-0.9c-1.2-0.8-2.4-1.5-3.6-2.3c-0.8-0.6-1.2-0.6-1.5,0.3
		c-0.4,1.2-0.8,2.3-1.1,3.5c-0.1,0.3,0,0.7,0.2,0.8c0.7,0.9,1.3,2,2.1,2.8c1.8,1.8,4.1,2.9,6.5,3.9c0.8,0.3,1.6,0.2,2.1-0.5
		C86.2,181.5,86.5,180.5,87,179.7z M93.2,165.4c0-0.2,0-0.3,0.1-0.4c-0.3-0.2-0.7-0.5-1-0.6c-2-0.4-4-0.8-6.1-0.5
		c-3.4,0.6-6.1,2.2-8.3,4.6c-0.5,0.6-0.6,1.2,0.2,1.7c0.8,0.6,1.7,1.3,2.5,1.8c0.7,0.4,1.2,0.3,1.6-0.4c0.4-0.8,0.8-1.4,1.4-2.1
		c1.9-2.2,4.5-3.2,7.3-3.7C91.5,165.8,92.3,165.6,93.2,165.4z M75,179.3c0,0.5,0,0.8,0.1,1.1c1.1,3.8,3.3,6.6,6.8,8.4
		c0.3,0.2,1,0.3,1.3,0.1c1.1-0.8,1.3-1.8,1.3-3.1c0-1-0.6-1.5-1.5-1.8c-2.4-0.9-4.6-2.1-6.5-3.8C76,179.8,75.6,179.6,75,179.3z
		 M138.1,60.5c0,0.1-0.1,0.2-0.1,0.3c0.8,0.9,1.8,1.8,2.5,2.9c0.8,1,1.8,1.6,3.1,1.8c1.3,0.2,2.5,0.5,3.8,0.7
		c0.1-0.1,0.1-0.2,0.2-0.3c-1.2-1.4-2.3-2.9-3.6-4.3c-0.1-0.1-0.3-0.2-0.3-0.2C141.7,61.1,139.8,60.8,138.1,60.5z M38.1,60.5
		C38,60.5,38,60.4,38,60.3c-1.3,0.2-2.6,0.5-3.9,0.6c-1.3,0.1-2.3,0.8-3.1,1.8c-0.8,1.1-1.6,2.1-2.6,3.4c1.7-0.3,3-0.6,4.4-0.8
		c0.6-0.2,1.3-0.2,1.7-0.5C35.8,63.3,36.9,61.9,38.1,60.5z M46.9,96c0,1.3,0,2.5,0,3.9c0.7-0.1,1.4,0.1,1.8-0.3
		c1.3-1.1,2.6-2.3,4-3.6C50.7,96,48.9,96,46.9,96z M128.7,96c-1.9,0-3.8,0-5.8,0c1.3,1.1,2.3,2.1,3.4,3.2c0.8,0.8,1.4,0.8,2.3,0.5
		C128.7,98.5,128.7,97.3,128.7,96z"/>
	<path class="st0" d="M145.8,157.6c4.7,1.9,9.2,3.8,14,5.7c-1.1,2.3-2.1,4.7-3.3,7c-0.8,1.3-2.2,1.8-3.7,1.4
		c-1.4-0.3-2.3-1.2-2.7-2.5c-0.1-0.2-0.1-0.3-0.2-0.5c0,0-0.1-0.1-0.1-0.2c-0.2,0.2-0.4,0.3-0.6,0.4c-1.2,0.9-2.4,1-3.8,0.4
		c-1.3-0.6-2.2-1.6-2.3-3.1c0-0.7,0-1.4,0.2-2.1C144,162.1,144.9,159.9,145.8,157.6z M147,161.4c-0.4,1.3-0.9,2.4-1.3,3.7
		c-0.3,0.8,0.2,1.3,0.9,1.7c0.8,0.3,1.6,0.4,2-0.3c0.7-1.1,1.2-2.3,1.8-3.6C149.3,162.2,148.3,161.8,147,161.4z M152.7,163.7
		c-0.3,1.2-0.8,2.2-1,3.3c-0.2,0.8,0.3,1.4,1.2,1.7c0.8,0.3,1.4-0.1,1.8-0.8c0.4-0.9,0.8-1.8,1.3-2.8
		C155,164.6,154,164.2,152.7,163.7z"/>
	<path class="st0" d="M143.3,187.3c-4.1-0.1-8.1-3.7-8.3-7.7c-0.3-4.3,3.8-7.4,7.3-6.8c3.8,0.7,6.9,3.4,7.6,6.6
		C150.7,183.6,147.5,187.4,143.3,187.3z M141.2,175.8c-2.5,0-4.1,2.6-2.9,4.9c1,2,2.8,3.3,5,3.6c2.5,0.4,4.4-1.8,3.7-4.2
		C146.4,178,143.3,175.8,141.2,175.8z"/>
	<path class="st0" d="M163.3,138.2c0.1,1,0.2,1.8,0.3,2.9c-1.4,0.1-2.8,0.3-4.1,0.3c-1.8,0.1-3.7,0.2-5.5,0.3
		c-4.6,0.1-7.3-4.3-5.3-8.5c0.8-1.8,2.3-2.6,4.2-2.8c3.4-0.3,6.6-0.4,10.1-0.7c0.1,1,0.2,1.9,0.3,3c-2.1,0.2-4.1,0.3-6.1,0.4
		c-1.2,0.1-2.4,0.1-3.6,0.3c-2,0.3-2.9,1.8-2.3,3.6c0.3,1.1,1.2,1.7,2.6,1.6c2.3-0.1,4.6-0.2,7-0.3
		C161.4,138.3,162.3,138.3,163.3,138.2z"/>
	<path class="st0" d="M161.9,123.8c-0.1,0.1-0.1,0.1-0.2,0.1c-2.4,0.9-2.4,0.9-3.1-1.5c-0.4-1.3-0.8-2.6-1.2-4
		c-1.2,0.3-2.2,0.6-3.3,0.9c0.5,1.9,1,3.7,1.6,5.5c-0.8,0.3-1.7,0.5-2.6,0.8c-0.6-1.8-1.1-3.6-1.7-5.5c-1.9,0.5-3.8,1.1-5.7,1.6
		c-0.3-0.9-0.5-1.8-0.8-2.9c4.8-1.4,9.6-2.8,14.3-4.1C160.1,117.8,161,120.8,161.9,123.8z"/>
	<path class="st0" d="M161.4,157.5c-0.9-0.2-1.8-0.3-2.7-0.4c0.2-1.3,0.3-2.4,0.6-3.8c-3.9-0.7-7.9-1.3-11.9-2.1
		c0.2-1,0.3-1.9,0.5-2.9c4,0.7,8,1.3,12,2c0.3-1.3,0.4-2.3,0.7-3.7c0.9,0.2,1.8,0.3,2.7,0.4C162.6,150.7,162,154,161.4,157.5z"/>
	<path class="st0" d="M139.7,194.5c-0.8,0.7-1.5,1.3-2.3,1.9c-2.6-3.1-5.2-6.1-7.8-9.3c-1.6,1.3-3.1,2.6-4.6,3.9
		c-0.6-0.7-1.2-1.3-1.8-2.1c2.3-1.9,4.6-3.9,7-5.9C133.3,186.9,136.5,190.6,139.7,194.5z"/>
	<path class="st0" d="M43.8,200.5c-1.8-1.5-3.5-2.9-5-4.4c-1.2-1.1-1.8-2.6-1-4.2c0.8-1.8,2.2-2.4,4.1-2.3c-0.1-0.3-0.1-0.5-0.2-0.8
		c-0.6-1.6-0.2-2.9,1-4c1.2-1.1,2.6-1.5,3.9-0.7c1.8,1,3.4,2.3,5,3.5c0.6,0.4,1.2,1,1.8,1.6C50.3,192.9,47.1,196.6,43.8,200.5z
		 M49.6,189.2c-1-0.8-1.9-1.5-2.9-2.2c-0.8-0.6-1.6-0.4-2.3,0.3c-0.6,0.7-0.7,1.5,0.1,2.3c0.8,0.8,1.8,1.6,2.7,2.5
		C48,191,48.8,190.1,49.6,189.2z M45.6,193.9c-0.9-0.7-1.7-1.3-2.6-1.9c-0.8-0.4-1.5-0.3-2.1,0.4c-0.6,0.7-0.5,1.5,0,2.1
		c0.7,0.8,1.5,1.3,2.3,2.1C44.1,195.6,44.8,194.8,45.6,193.9z"/>
	<path class="st0" d="M29.1,166.7c1.5-0.6,2.9-1.2,4.4-1.8c0.4,0.9,0.8,1.8,1.2,2.8c-4.6,1.9-9.1,3.9-13.8,5.8
		c-0.8-2.3-1.8-4.5-2.5-6.9c-0.5-1.8,0.1-3.4,1.7-4.4c1.7-1.2,3.5-1.6,5.5-0.5c0.3,0.2,0.6,0.4,1,0.7c1.3-1.6,2.5-3.2,3.9-5
		c0.4,1,0.8,1.9,1.2,2.9c0.1,0.3-0.1,0.7-0.3,0.9c-0.7,0.8-1.3,1.7-1.9,2.5C28.1,165,28.1,165,29.1,166.7z M26.6,167.8
		c-0.4-1-0.8-1.9-1.3-2.7c-0.6-1-1.6-1.3-2.7-0.8c-1,0.4-1.7,1.2-1.5,2.1c0.3,1.1,0.7,2.2,1.1,3.3C23.8,169,25.1,168.4,26.6,167.8z"
		/>
	<path class="st0" d="M21.3,139.8c-1.4-0.4-2.9-0.8-4.4-1.3c-3.1-1.3-3.9-4.6-3.6-6.7c0.5-3.2,2.9-5.5,5.9-5.7
		c1.9-0.2,3.8,0,5.6,0.8c2.9,1.3,4.4,4.3,3.9,7c-0.7,3.4-3.1,5.5-6.4,5.6c-0.3,0-0.6,0-0.9,0C21.3,139.6,21.3,139.7,21.3,139.8z
		 M21.2,136.6c0.9-0.2,1.6-0.3,2.3-0.5c1.5-0.5,2.4-1.6,2.4-2.9c0.1-1.6-0.7-2.7-2.2-3.4c-1.5-0.6-3-0.9-4.7-0.6
		c-1.5,0.3-2.7,1.5-2.9,2.9c-0.3,1.3,0.5,2.8,1.9,3.4C19.1,136.1,20.2,136.3,21.2,136.6z"/>
	<path class="st0" d="M14.7,145.5c0.8,0.4,1.6,0.8,2.3,1.3c-0.2,0.9-0.5,1.8-0.5,2.7c-0.1,1.8,0.9,3.1,2.6,3.6
		c1.9,0.6,3.9,0.3,5.5-0.9c1.4-1,2-2.9,1.3-4.5c-0.3-0.8-0.8-1.3-1.8-1c-0.5,0.2-1,0.2-1.5,0.3c0.1,0.9,0.2,1.7,0.3,2.6
		c-0.8,0.2-1.6,0.3-2.5,0.4c-0.3-1.8-0.6-3.6-0.9-5.5c1.6-0.3,3.1-0.6,4.7-0.8c2.3-0.3,2.8-0.1,3.9,2c2.6,4.8-0.2,10-5.7,10.7
		c-4.1,0.5-7.1-1.2-8.3-4.5C13.3,149.6,13.5,147.5,14.7,145.5z"/>
	<path class="st0" d="M26.1,182c-0.6-0.8-1.2-1.6-1.8-2.4c2-1.5,3.9-2.9,5.9-4.4c0.8-0.6,1.6-1.2,2.5-1.7c2.3-1.4,5-1.1,6.7,1
		c2.2,2.6,2.8,5.8-0.4,8.2c-2.6,2-5.3,3.9-8,6c-0.6-0.8-1.2-1.6-1.8-2.4c2.3-1.7,4.5-3.3,6.8-5c0.7-0.5,1.3-1,1.8-1.6
		c0.8-0.9,0.6-2.1-0.3-3c-0.8-0.9-1.8-1.3-2.9-0.7c-1,0.5-1.9,1.2-2.9,1.8C30,179.1,28.1,180.5,26.1,182z"/>
	<path class="st0" d="M20.6,110.8c0.6,0.8,1,1.5,1.4,2.1c-0.8,1-1.4,1.9-2.1,2.9c-0.4,0.7-0.4,1.3,0.3,1.8c0.7,0.5,1.3,0.3,1.9-0.2
		c0.8-0.8,1.6-1.6,2.3-2.3c1.9-1.9,3.4-2.3,5.5-1.2c1.8,1,2.6,2.9,2,5.3c-0.6,2.3-1.9,3.9-4,5c-0.5-0.8-0.9-1.5-1.4-2.3
		c0.4-0.3,0.8-0.6,1.2-0.9c0.9-0.8,1.5-1.6,1.7-2.8c0.1-0.8-0.1-1.5-0.8-1.6c-0.5-0.1-1.3,0.1-1.7,0.4c-1,0.8-1.8,1.8-2.8,2.7
		c-1.8,1.6-3.6,1.8-5.2,0.8c-1.7-1.1-2.3-3.1-1.7-5.3C17.6,113.3,18.9,111.9,20.6,110.8z"/>
	<path class="st0" d="M113.1,76.2c0.4,0.8,1,1.6,1.2,2.3c0.6,2.7-1.6,4.9-4.4,4.6c-0.5-0.1-0.9-0.1-1.3-0.3c-2-0.6-4-1.3-6.1-1.9
		c1.6-4.8,3.1-9.5,4.8-14.4c2.4,1,4.9,1.9,7.2,2.9c1.3,0.6,1.8,1.8,1.7,3.2c-0.2,1.4-0.8,2.5-2,3.1
		C113.6,76.1,113.3,76.2,113.1,76.2z M106,79.4c1.3,0.3,2.3,0.8,3.5,1c0.8,0.2,1.6-0.2,1.9-1.1c0.3-0.8,0.2-1.6-0.7-2
		c-1.2-0.6-2.3-0.9-3.6-1.4C106.8,77.2,106.4,78.3,106,79.4z M107.9,73.6c1.2,0.3,2.2,0.6,3.3,0.8c0.8,0.2,1.3-0.4,1.6-1.2
		c0.3-0.8,0-1.4-0.7-1.8c-1-0.5-2-0.8-3.1-1.3C108.7,71.5,108.4,72.5,107.9,73.6z"/>
	<path class="st0" d="M88.7,64.5c1.1,0.2,2,0.3,3,0.3c-0.1,1.3-0.2,2.7-0.3,4.1c-0.2,1.8-0.3,3.6-0.5,5.4c-0.1,1.8,1,3,2.8,3
		c1.3,0,2.2-0.7,2.3-2c0.3-2.8,0.6-5.6,0.8-8.4c0.1-0.5,0.1-1.1,0.2-1.7c0.9,0.1,1.8,0.2,2.9,0.3c-0.1,1.6-0.2,3-0.3,4.5
		c-0.2,1.8-0.3,3.7-0.6,5.5c-0.3,2.7-2,4.4-4.6,4.6c-3.2,0.3-5.6-1.1-6.3-3.6C88.1,76.2,88,76,88,75.7C88.4,72,88.5,68.4,88.7,64.5z
		"/>
	<path class="st0" d="M70.6,78c0.8,0.5,1.6,0.9,2.3,1.3c-1.4,4-6.5,5.5-9.8,2.9c-2.6-2-4-6.2-3.3-9.1c1-3.8,5.3-5.9,8.7-4.4
		c0.2,0.1,0.3,0.2,0.5,0.3c-0.3,0.8-0.5,1.7-0.8,2.5c-0.5-0.1-1-0.2-1.5-0.3c-2.3-0.3-3.9,0.8-4,3.3c-0.1,2,0.6,3.8,2,5.2
		c1.7,1.6,3.9,1.3,5.3-0.7C70.2,78.7,70.3,78.4,70.6,78z"/>
	<path class="st0" d="M76.5,80.8c-0.7-5-1.3-9.8-1.9-14.8c1-0.2,1.9-0.3,2.9-0.4c0.6,4,1.1,8.1,1.6,12.1c2-0.3,3.9-0.5,6-0.8
		c0.1,0.9,0.3,1.8,0.3,2.7C82.5,80,79.6,80.4,76.5,80.8z"/>
	<path class="st0" d="M51.7,52.1c0-1.3,0.8-2.6,2.2-3c3.6-1.2,7.1-2.3,10.7-3.3c1.5-0.4,3,0.4,3.7,1.9c0.7,1.6,0.3,3.2-1.2,4
		c-1,0.6-2.1,0.9-3.3,1.3c-2.8,0.8-5.5,1.7-8.3,2.3C53.4,55.9,51.7,54.3,51.7,52.1z M55.5,54.4c1.2-0.3,2.9-0.8,4.4-1.3
		c2.2-0.7,4.4-1.3,6.5-2.2c1.2-0.5,1.5-1.8,1-3c-0.4-1.1-1.5-1.6-2.8-1.3c-1.5,0.4-2.9,0.8-4.4,1.3c-2,0.6-3.9,1.2-6,1.8
		c-1.3,0.4-1.8,1.5-1.6,2.7C53.1,53.9,53.7,54.5,55.5,54.4z"/>
	<path class="st0" d="M120.3,55.3c-0.2,0-0.5-0.1-0.9-0.2c-3.2-1-6.5-2-9.6-3.1c-2.7-0.9-3.3-3.9-1.2-5.7c0.8-0.8,1.8-0.8,2.9-0.6
		c3.4,1,6.9,2,10.2,3.1c1.8,0.6,2.8,2.1,2.5,3.6C123.8,54.3,122.4,55.3,120.3,55.3z M120.3,54.3c1.7,0,2.6-0.7,2.9-1.9
		c0.2-1.2-0.5-2.2-1.8-2.6c-3.4-1-6.8-2.1-10.2-3.1c-0.8-0.3-1.5-0.1-2.2,0.5c-1.3,1.3-0.9,3.3,0.9,3.9c3.2,1.1,6.5,2.1,9.7,3.1
		C119.9,54.3,120.2,54.3,120.3,54.3z"/>
	<path class="st0" d="M94.3,46.5c-0.5,0.6-0.8,1.2-1.3,1.5c-1.3,0.8-2.7,1.6-4.1,2.3c-0.5,0.3-1.2,0.2-1.7,0
		c-1.4-0.7-2.8-1.3-4.1-2.2c-1.4-0.8-1.4-2.2-0.1-3.1c1.3-0.8,2.6-1.7,3.9-2.5c0.8-0.5,1.5-0.5,2.3,0c1.3,0.8,2.7,1.7,3.9,2.6
		C93.7,45.3,93.9,45.9,94.3,46.5z M88.1,42.9c-0.3,0.1-0.4,0.1-0.5,0.2c-1.3,0.8-2.7,1.7-4,2.6c-0.7,0.4-0.6,1,0.2,1.4
		c1.3,0.8,2.6,1.4,3.9,2.1c0.3,0.2,0.8,0.1,1.2-0.1c1.3-0.6,2.4-1.3,3.6-1.9c0.8-0.5,0.9-1,0.1-1.6c-1.2-0.8-2.4-1.6-3.7-2.4
		C88.6,43.1,88.4,43,88.1,42.9z"/>
	<path class="st0" d="M129.1,51.7c2.2,0,3.9,1.8,3.9,3.9c0,2.1-1.8,3.9-3.9,3.9c-2.1,0-3.9-1.8-3.9-3.8
		C125.2,53.4,127,51.7,129.1,51.7z M129.2,58.4c1.6,0,2.9-1.3,2.9-2.9c0-1.6-1.3-2.9-2.9-2.9c-1.6,0-2.9,1.3-2.9,2.9
		C126.3,57.1,127.6,58.4,129.2,58.4z"/>
	<path class="st0" d="M46.8,59.4c-2.2,0-3.9-1.7-3.9-3.9s1.7-3.9,3.9-3.9c2.1,0,3.8,1.7,3.9,3.9C50.8,57.6,49,59.4,46.8,59.4z
		 M49.8,55.6c0-1.7-1.3-2.9-2.9-2.9c-1.6,0-2.9,1.3-2.9,2.9c0,1.6,1.3,2.9,2.9,2.9C48.4,58.4,49.8,57.1,49.8,55.6z"/>
	<path class="st0" d="M101.8,50.9c-2.2,0-3.9-1.8-3.9-3.9c0-2.2,1.8-3.9,3.9-3.9c2.1,0,3.8,1.8,3.9,3.9
		C105.8,49.2,104,50.9,101.8,50.9z M101.8,50c1.7,0,2.9-1.3,2.9-2.9s-1.3-2.9-2.9-2.9c-1.6,0-2.9,1.3-2.9,2.9
		C99,48.6,100.2,50,101.8,50z"/>
	<path class="st0" d="M74.5,50.9c-2.2,0-3.9-1.7-3.9-3.9c0-2.1,1.7-3.9,3.8-3.9c2.2,0,3.9,1.6,3.9,3.8
		C78.4,49.2,76.7,50.9,74.5,50.9z M77.4,47.1c0-1.6-1.2-2.9-2.9-2.9c-1.6,0-2.9,1.3-2.9,2.9c0,1.6,1.3,2.9,2.9,2.9
		C76.1,50,77.4,48.7,77.4,47.1z"/>
</g>
</svg>
