<?xml version="1.0" encoding="utf-8"?>
<!-- Generator: Adobe Illustrator 22.1.0, SVG Export Plug-In . SVG Version: 6.00 Build 0)  -->
<svg version="1.1" id="ESCUDO_x5F_BURGOSCF_x5F_BN" xmlns="http://www.w3.org/2000/svg" xmlns:xlink="http://www.w3.org/1999/xlink"
	 x="0px" y="0px" viewBox="0 0 255.1 340.1" style="enable-background:new 0 0 255.1 340.1;" xml:space="preserve">
<style type="text/css">
	.st0{fill:#FFFFFF;}
</style>
<g id="ESCUDO">
	<path class="st0" d="M0.2,0.2c85.1,0,170.2,0,255.4,0c0,113.4,0,226.7,0,340.1c-85.1,0-170.2,0-255.4,0C0.2,227,0.2,113.6,0.2,0.2z
		 M37.1,156.5c0,0.3,0.1,0.3,0,0.4c-0.1,0.3-0.2,0.5-0.3,0.8c-8,18.6-10.4,37.9-6.6,57.8c5,26.6,18.8,47.7,40.8,63.3
		c15.4,10.9,32.6,16.6,51.4,17.7c0.7,0,1.1,0.3,1.4,1c1.1,2.5,2.2,5.1,3.3,7.6c0.2,0.5,0.5,1,0.8,1.7c1.4-3.2,2.7-6.2,4-9.2
		c0.3-0.7,0.7-1,1.5-1c5.9-0.3,11.7-1.2,17.4-2.5c41.9-9.9,73-46.5,75.9-89.4c1.1-16.2-1.5-31.9-8-46.8c-0.2-0.4-0.3-0.7-0.5-1.3
		c3.9,0,7.6,0,11.4,0c0-9.5,0-18.8,0-28.1c-5.7,0-11.3,0-17,0c0,2.2,0,4.3,0,6.5c-2.3,0-4.5,0-6.7,0c-0.8,0-1.3-0.3-1.8-0.9
		c-3.5-3.7-7-7.3-10.6-10.9c-0.2-0.2-0.3-0.4-0.5-0.6c1.5-1.1,2.3-2.6,2.4-4.3c0.1-1.9-0.8-3.5-2-4.9c-0.6-0.7-0.7-1.4-0.1-2.2
		c1.6,0.3,3.2,0.6,4.8,0.9c0.9,0.2,1.8,0.1,2.3-0.8c0.6-1,0.2-1.8-0.4-2.5c-1-1.3-2.1-2.5-3.1-3.9c0.5-0.4,0.9-0.8,1.3-1.2
		c5,1.9,7.6,1.6,9.5-1.4c0.6-1,0.9-2.3,0.9-3.5c0-2.3-1.7-3.7-3.4-4.9c1.4-0.7,2.8-1.3,4-2.1c1.2-0.8,2.3-1.8,3.3-2.9
		c0.8-0.9,1.4-1.1,2.6-0.5c4.5,2.2,9.3-0.5,9.4-5.1c0.1-2.6,0-5.2,0-7.8c0-2.5-1.3-4.4-3.6-5.4c-2.3-1-4.6-1-7,0
		c-0.5,0.2-1.2,0.3-1.7,0.1c-4.9-1.6-9.4,1.1-10,6.2c-0.2,1.8,0.2,3.7,0.3,5.7c-2.8,1.6-6.7-0.9-7.2-5.1c3-0.2,5.6-1.2,7.4-3.7
		c1.8-2.5,2.2-5.4,1.5-8.4c-1.1-4.9-6.2-8-11.3-6.8c-6.1,1.4-8.4,5.9-6.8,13.7c-0.9,0.5-1.9,1.1-2.9,1.5c-3.6,1.7-6.6,0.1-7.1-3.7
		c1.1-0.5,2.1-1.1,3.1-1.6c0.7-0.3,1.4-0.8,2.1-1c2.1-0.5,3.7-1.5,4.4-3.6c0.6-1.7,1.2-3.3,1.7-5c0.5-1.8,0.3-3.5-1-4.8
		c-0.8-0.8-1.1-1.7-1.3-2.7c-0.3-1.7-1.2-3.1-2.8-3.8c-1.9-0.8-3.9-1.5-5.9-2c-1.7-0.5-3.3-0.1-4.6,1.1c-0.8,0.7-1.6,1.1-2.6,1.2
		c-2,0.4-3.4,1.5-4.1,3.4c-0.6,1.6-1.2,3.2-1.7,4.9c-0.7,2.1-0.2,3.9,1.3,5.5c0.3,0.3,0.6,0.8,0.7,1.2c0.4,1.2,0.7,2.4,1.1,3.8
		c-1.8,1.5-3.9,3.1-6.6,2.1c-2.9-1-3.7-3.6-4.5-6.2c6-3.8,7.6-9.7,4.2-14.7c-3-4.4-9.6-5.2-14-2c-4,3-5.2,10.5-0.3,15.1
		c-1.4,1.8-3.1,3.2-5.4,3.7c-1,0.2-2.1,0.1-3-0.3c-1.8-0.9-3-2.5-4-4.4c1.8-0.8,2.9-2,3.4-3.8c0.1-0.3,0.6-0.6,1-0.8
		c2.1-0.8,3.4-2.2,3.6-4.4c0.2-2.5,0.3-5,0.1-7.5c-0.2-2-1.3-3.6-3.3-4.4c-0.8-0.3-1.3-0.8-1.6-1.6c-0.7-1.8-2-3-3.9-3.2
		c-2.4-0.2-4.8-0.3-7.2-0.2c-2.6,0.1-4.4,1.3-5.3,3.9c-0.1,0.4-0.6,0.7-1,0.9c-2,0.7-3.3,2.2-3.5,4.3c-0.2,2.5-0.2,4.9-0.1,7.4
		c0.1,2.3,1.5,3.9,3.7,4.7c0.4,0.1,0.8,0.5,0.9,0.8c0.6,1.6,1.6,2.9,3.3,3.6c-1.6,2.3-2.9,4.9-6,5c-3,0.1-4.9-1.9-6.7-4
		c0.1-0.2,0.2-0.3,0.3-0.4c3-2.8,3.6-7.7,1.9-11.3c-1.6-3.5-5-5.4-9.3-5.2c-4.2,0.1-7.5,2.8-8.5,6.8c-1.1,4.3,0.5,8.7,4,10.8
		c1.9,1.2,1.9,1.2,1,3.2c-0.1,0.3-0.2,0.5-0.4,0.8c-1.9,3.7-6,5.1-9.8,1.2c0.5-1.2,0.9-2.3,1.4-3.3c0.3-0.7,0.6-1.6,1.1-2.2
		c1.2-1.6,1.7-3.2,1.1-5.2c-0.5-1.6-1-3.1-1.6-4.7c-0.7-2.2-2.3-3.3-4.5-3.8c-0.7-0.2-1.5-0.5-2.1-1c-1.6-1.2-3.2-1.7-5.1-1.1
		c-1.5,0.5-3,1-4.4,1.5c-2.3,0.7-3.6,2.3-4.1,4.7c-0.2,0.7-0.5,1.5-1,2.1c-1.3,1.6-1.7,3.3-1,5.3c0.5,1.4,1,2.8,1.4,4.2
		c0.7,2.4,2.3,3.8,4.7,4.2c0.5,0.1,1.1,0.3,1.5,0.6c0.8,0.5,1.6,1,2.4,1.5c0.2,0.1,0.5,0.4,0.5,0.6c0,2.4-2.4,4.7-4.8,4.3
		c-1.7-0.3-3.4-1-5.1-1.6c2.9-7.6-1-12.8-5.4-14c-5.3-1.5-10.7,1.1-12.2,6c-1.8,6.1,1.1,10.7,8.2,12.8c-0.2,2-1,3.6-2.8,4.5
		c-1.5,0.8-3.1,1.2-4.7,0c0.1-0.2,0.1-0.4,0.2-0.6c1.1-3.3,0.9-6.3-1.4-9c-2.2-2.5-4.9-2.8-8-2c-0.6,0.2-1.4,0-2.1-0.1
		c-1-0.2-2-0.6-3-0.7c-4-0.2-7,2.3-7.2,6.1c-0.1,2.6-0.1,5.2,0,7.8c0.2,4,3.7,6.5,7.6,5.5c0.8-0.2,1.7-0.5,2.5-0.8
		c0.7-0.3,1.2-0.2,1.7,0.4c1.8,2.2,4,3.9,6.7,4.9c0.3,0.1,0.5,0.3,0.9,0.5c-0.5,0.4-0.8,0.7-1.2,1c-1.1,1-1.9,2.2-1.9,3.7
		c-0.1,4.6,4.8,7.6,9,5.5c0.7-0.3,1.3-0.7,2-1.1c0.4,0.7,0.7,1.2,1,1.8c-1.1,1.4-2.2,2.7-3.2,4.1c-0.6,0.7-1,1.4-0.4,2.3
		c0.6,0.8,1.3,1.2,2.4,0.9c1.7-0.4,3.5-0.7,5.2-1.1c0.7,0.9,0.5,1.6-0.2,2.3c-1.6,1.8-2.2,3.9-1.2,6.2c0.4,0.9,1.1,1.7,1.4,2.3
		c-4,4.3-8,8.5-12,12.7c-0.2,0.2-0.5,0.5-0.8,0.5c-2.5,0-5,0-7.7,0c0-2.3,0-4.4,0-6.6c-5.7,0-11.3,0-17,0c0,9.4,0,18.7,0,28.1
		C29.6,156.5,33.3,156.5,37.1,156.5z"/>
	<path d="M37.1,156.5c-3.8,0-7.5,0-11.4,0c0-9.4,0-18.8,0-28.1c5.6,0,11.2,0,17,0c0,2.1,0,4.3,0,6.6c2.7,0,5.2,0,7.7,0
		c0.3,0,0.5-0.3,0.8-0.5c4-4.2,7.9-8.4,12-12.7c-0.4-0.6-1-1.4-1.4-2.3c-1-2.3-0.4-4.4,1.2-6.2c0.7-0.8,0.8-1.4,0.2-2.3
		c-1.7,0.3-3.4,0.6-5.2,1.1c-1.1,0.3-1.8-0.1-2.4-0.9c-0.6-0.8-0.1-1.6,0.4-2.3c1.1-1.3,2.1-2.7,3.2-4.1c-0.3-0.6-0.6-1.1-1-1.8
		c-0.7,0.4-1.3,0.8-2,1.1c-4.2,2.2-9.1-0.8-9-5.5c0-1.5,0.8-2.7,1.9-3.7c0.3-0.3,0.7-0.6,1.2-1c-0.4-0.2-0.6-0.4-0.9-0.5
		c-2.6-1.1-4.9-2.7-6.7-4.9c-0.5-0.6-0.9-0.7-1.7-0.4c-0.8,0.3-1.7,0.6-2.5,0.8c-3.8,1-7.4-1.5-7.6-5.5c-0.1-2.6-0.1-5.2,0-7.8
		c0.2-3.8,3.1-6.3,7.2-6.1c1,0,2,0.5,3,0.7c0.7,0.1,1.5,0.3,2.1,0.1c3.1-0.9,5.8-0.5,8,2c2.3,2.7,2.6,5.7,1.4,9
		c-0.1,0.2-0.1,0.4-0.2,0.6c1.6,1.1,3.2,0.8,4.7,0c1.8-1,2.6-2.6,2.8-4.5c-7.1-2.1-10-6.7-8.2-12.8c1.5-5,6.8-7.5,12.2-6
		c4.4,1.3,8.3,6.4,5.4,14c1.7,0.5,3.3,1.3,5.1,1.6c2.4,0.4,4.8-1.9,4.8-4.3c0-0.2-0.3-0.5-0.5-0.6c-0.8-0.5-1.6-1.1-2.4-1.5
		c-0.5-0.3-1-0.5-1.5-0.6c-2.4-0.5-4-1.8-4.7-4.2c-0.4-1.4-0.9-2.8-1.4-4.2c-0.6-2-0.2-3.7,1-5.3c0.5-0.6,0.9-1.3,1-2.1
		c0.5-2.4,1.8-3.9,4.1-4.7c1.5-0.5,3-1,4.4-1.5c1.9-0.6,3.6-0.1,5.1,1.1c0.6,0.5,1.4,0.8,2.1,1c2.2,0.5,3.8,1.7,4.5,3.8
		c0.5,1.6,1,3.1,1.6,4.7c0.6,1.9,0.1,3.6-1.1,5.2c-0.5,0.6-0.7,1.5-1.1,2.2c-0.5,1.1-0.9,2.2-1.4,3.3c3.8,3.9,7.9,2.5,9.8-1.2
		c0.1-0.2,0.2-0.5,0.4-0.8c0.9-2.1,0.9-2.1-1-3.2c-3.5-2.2-5.1-6.5-4-10.8c1-4,4.4-6.7,8.5-6.8c4.4-0.2,7.7,1.7,9.3,5.2
		c1.7,3.6,1.1,8.5-1.9,11.3c-0.1,0.1-0.1,0.2-0.3,0.4c1.8,2.1,3.7,4.1,6.7,4c3.1-0.1,4.4-2.7,6-5c-1.7-0.7-2.6-2-3.3-3.6
		c-0.1-0.3-0.6-0.7-0.9-0.8c-2.2-0.8-3.6-2.4-3.7-4.7c-0.1-2.5-0.1-4.9,0.1-7.4c0.2-2.1,1.5-3.5,3.5-4.3c0.4-0.1,0.9-0.5,1-0.9
		c0.8-2.6,2.7-3.8,5.3-3.9c2.4-0.1,4.8,0,7.2,0.2c1.9,0.2,3.2,1.4,3.9,3.2c0.3,0.8,0.8,1.3,1.6,1.6c2,0.7,3.2,2.3,3.3,4.4
		c0.2,2.5,0.1,5-0.1,7.5c-0.2,2.2-1.5,3.6-3.6,4.4c-0.4,0.1-0.9,0.4-1,0.8c-0.5,1.8-1.6,3-3.4,3.8c1,1.8,2.2,3.5,4,4.4
		c0.9,0.4,2,0.5,3,0.3c2.3-0.5,4-1.9,5.4-3.7c-4.9-4.6-3.7-12.1,0.3-15.1c4.4-3.3,11-2.4,14,2c3.4,4.9,1.7,10.9-4.2,14.7
		c0.9,2.5,1.7,5.1,4.5,6.2c2.8,1,4.8-0.6,6.6-2.1c-0.4-1.4-0.7-2.6-1.1-3.8c-0.1-0.4-0.4-0.9-0.7-1.2c-1.5-1.6-2-3.4-1.3-5.5
		c0.5-1.6,1.1-3.2,1.7-4.9c0.7-2,2.1-3.1,4.1-3.4c1-0.2,1.8-0.5,2.6-1.2c1.3-1.2,2.9-1.5,4.6-1.1c2,0.6,3.9,1.3,5.9,2
		c1.6,0.7,2.5,2,2.8,3.8c0.2,1,0.5,1.9,1.3,2.7c1.3,1.4,1.5,3.1,1,4.8c-0.5,1.7-1.1,3.3-1.7,5c-0.7,2.1-2.3,3.2-4.4,3.6
		c-0.7,0.2-1.4,0.6-2.1,1c-1,0.5-2,1-3.1,1.6c0.5,3.8,3.6,5.4,7.1,3.7c1-0.5,2-1,2.9-1.5c-1.6-7.8,0.7-12.3,6.8-13.7
		c5-1.1,10.1,1.9,11.3,6.8c0.7,3,0.3,5.8-1.5,8.4c-1.8,2.5-4.4,3.6-7.4,3.7c0.5,4.2,4.4,6.7,7.2,5.1c-0.1-2-0.5-3.9-0.3-5.7
		c0.6-5.1,5.1-7.8,10-6.2c0.5,0.2,1.2,0.1,1.7-0.1c2.3-1,4.7-1,7,0c2.3,1,3.5,2.8,3.6,5.4c0,2.6,0.1,5.2,0,7.8
		c-0.1,4.6-4.9,7.3-9.4,5.1c-1.2-0.6-1.8-0.4-2.6,0.5c-1,1.1-2.1,2.1-3.3,2.9c-1.2,0.8-2.6,1.4-4,2.1c1.7,1.2,3.4,2.6,3.4,4.9
		c0,1.2-0.3,2.5-0.9,3.5c-1.9,3-4.5,3.3-9.5,1.4c-0.4,0.4-0.8,0.8-1.3,1.2c1.1,1.3,2.1,2.6,3.1,3.9c0.6,0.8,1,1.6,0.4,2.5
		c-0.6,0.9-1.4,0.9-2.3,0.8c-1.6-0.3-3.2-0.6-4.8-0.9c-0.6,0.8-0.5,1.5,0.1,2.2c1.2,1.4,2.1,2.9,2,4.9c-0.1,1.8-0.9,3.2-2.4,4.3
		c0.2,0.2,0.4,0.4,0.5,0.6c3.5,3.6,7.1,7.3,10.6,10.9c0.5,0.6,1,0.9,1.8,0.9c2.2-0.1,4.4,0,6.7,0c0-2.3,0-4.4,0-6.5
		c5.7,0,11.3,0,17,0c0,9.3,0,18.6,0,28.1c-3.7,0-7.4,0-11.4,0c0.2,0.6,0.3,0.9,0.5,1.3c6.5,14.9,9.1,30.6,8,46.8
		c-2.9,42.9-34,79.5-75.9,89.4c-5.7,1.4-11.5,2.2-17.4,2.5c-0.8,0-1.2,0.3-1.5,1c-1.3,3-2.6,6-4,9.2c-0.3-0.7-0.5-1.2-0.8-1.7
		c-1.1-2.5-2.2-5-3.3-7.6c-0.3-0.7-0.7-0.9-1.4-1c-18.8-1.1-36.1-6.8-51.4-17.7c-22-15.6-35.8-36.7-40.8-63.3
		c-3.8-19.9-1.4-39.2,6.6-57.8c0.1-0.3,0.2-0.5,0.3-0.8C37.2,156.9,37.1,156.8,37.1,156.5z M128.7,152.3c0,24.3,0,48.7,0,73
		c10.3,1.1,15.5,7.6,16.6,15.9c0.6,4.3-0.7,8.3-3.2,11.8c-3.3,4.6-7.9,6.8-13.4,7.4c0,12.9,0,25.7,0,38.5c0.1,0,0.2,0,0.3,0.1
		c21.1-48.8,42.2-97.7,63.4-146.6C171.2,152.3,150,152.3,128.7,152.3z M213,156.3c-0.5-1.4-0.9-2.7-1.5-3.9
		c-0.9-1.8-2.1-3.6-3.1-5.4c-0.4-0.7-0.9-1-1.7-1c-5.9,0-11.8,0-17.6,0c-0.4,0-0.8,0-1.1,0.1c0,1.6,0,3,0,4.6c2.5,0,4.9,0,7.4,0
		c-0.2,0.4-0.3,0.7-0.4,0.9c-2.3,5.4-4.7,10.7-7.1,16.1c-0.4,0.9-0.4,1.6,0,2.5c5.8,12.8,7.5,26.2,4.6,39.9
		c-5.3,24.6-20.1,41.2-43.7,50c-0.5,0.2-1.1,0.8-1.3,1.3c-4.3,9.9-8.6,19.8-12.9,29.7c-0.1,0.3-0.2,0.7-0.4,1.2c0.4,0,0.6,0,0.8,0
		c6.3-0.4,12.5-1.5,18.6-3.3c19.6-5.6,35.8-16.4,48.5-32.4c12.2-15.2,18.9-32.7,20.4-52.1c0.5-6.7,0.3-13.3-0.6-20
		c-1.3-9.4-3.9-18.5-7.9-27.1C213.9,157,213.3,156.6,213,156.3z M67.4,146.2c-0.2,0-0.3-0.1-0.4-0.1c-6.2,0-12.4,0-18.6,0
		c-0.4,0-0.9,0.4-1.2,0.8c-1.3,2.2-2.6,4.4-3.8,6.6c-0.4,0.7-0.4,1.5-0.7,2.2c-0.1,0.2-0.1,0.5-0.3,0.7c-0.3,0.4-0.8,0.7-1,1.1
		c-4.5,9.8-7.3,20-8.3,30.8c-0.9,9.2-0.5,18.4,1.3,27.4c5.2,25.5,18.6,45.7,40,60.4c12.8,8.8,27.1,14,42.5,15.8
		c1.6,0.2,3.1,0.3,4.8,0.4c-0.1-0.3-0.1-0.4-0.2-0.5c-4.4-10.2-8.8-20.3-13.2-30.5c-0.2-0.5-0.8-1-1.4-1.1
		c-9.3-3.1-17.5-8-24.6-14.8c-12.8-12.3-19.7-27.4-20.6-45.1c-0.5-10.7,1.6-20.9,6-30.6c0.3-0.6,0.3-1.4,0-2
		c-2.3-5.4-4.6-10.7-6.9-16c-0.1-0.3-0.2-0.6-0.4-1c2.4,0,4.6,0,6.9,0C67.4,149.1,67.4,147.7,67.4,146.2z M79,135.1c0.6,0,1,0,1.5,0
		c7.9,0,15.8,0,23.8,0c1.1,0,2.3-0.2,3.4-0.5c5-1.6,10-2.6,15.2-2.9c8.6-0.6,17.1,0.3,25.4,3.1c0.9,0.3,1.8,0.4,2.7,0.4
		c8,0,16.1,0,24.1,0c0.4,0,0.9,0,1.3,0c0.1-0.5,0.1-0.9,0.2-1.4c3.8,0,7.5,0,11.3,0c0.1,0.5,0.1,0.8,0.1,1.3c3.8,0,7.5,0,11.3,0
		c0-0.1,0.1-0.3,0.1-0.4c-23-24.5-51.1-35.4-84.6-31.3c-11.4,1.4-22,5-32.1,10.5C72.5,119.2,63.7,126.2,56,135c4,0,7.6,0,11.3,0
		c0.1-0.5,0.1-0.9,0.2-1.3c3.8,0,7.5,0,11.3,0C78.9,134.2,78.9,134.5,79,135.1z M105.3,255.5c0.1-0.1,0.2-0.2,0.4-0.3
		C94,228.1,82.3,201,70.6,173.9c-0.1,0-0.3,0.1-0.4,0.1c-6.6,17.7-6.2,35.1,2.4,52.1C79.8,240,90.9,249.6,105.3,255.5z M185.6,174.5
		c-0.2,0-0.3,0-0.5-0.1c-11.6,26.9-23.2,53.8-34.9,80.7c0.1,0.1,0.2,0.1,0.3,0.2c16-6.6,27.7-17.7,34.4-33.7
		C191.6,206.1,191.5,190.3,185.6,174.5z M220.7,79.3c0,0-0.1,0-0.1,0c0-1.2,0-2.3,0-3.5c0-1-0.5-1.7-1.4-2.2
		c-1.8-1.1-3.7-0.6-4.6,1.3c-0.5,1-1,1-1.7,0.4c-0.7-0.5-1.4-1-2.2-1.4c-1.1-0.6-2.2-0.4-3.2,0.4c-2.2,1.7-2.4,5-0.3,6.9
		c1.1,1,1.1,1.3,0.1,2.4c-2.5,2.6-5.6,3.5-9.1,2.5c-3.4-1-5.7-3.4-6.2-6.9c-0.3-1.9-0.9-3.2-2.7-3.8c-0.4-0.1-0.9-0.1-1.3,0
		c-1.4,0.6-2.8,1.4-4.2,1.9c-5.7,1.9-9.6-0.9-11.3-5.6c-0.3-0.7-0.3-1.6-0.6-2.3c-0.2-0.4-0.6-0.9-1-1.1c-0.4-0.1-0.9,0-1.3,0.2
		c-0.4,0.2-0.6,0.6-1,0.9c-2.5,2.1-5.3,3.5-8.7,2.9c-4.6-0.9-6.9-4.1-8.1-8.3c-0.1-0.5-0.5-1.3-0.8-1.2c-1,0-2.1-0.9-3,0.4
		c-1.5,2.1-3.5,3.5-5.9,4.4c-3.6,1.4-6.9,0.8-9.5-2c-1.3-1.4-2.3-3.1-3.4-4.6c-0.3-0.3-0.7-0.7-1.1-0.8c-0.7-0.1-1.5-0.3-1.9,0.7
		c-0.6,1.3-1.4,2.5-2.3,3.7c-2.5,3.2-6.4,4.8-10.9,2.9c-2.3-1-4.3-2.5-5.8-4.5c-0.8-1.1-1.8-0.1-2.6-0.2c-0.3,0-0.7,0.5-0.8,0.9
		c-0.7,1.5-1.2,3.2-2.1,4.5c-2.2,3.3-5.3,4.8-9.4,4c-2.4-0.5-4.5-1.7-6.2-3.5c-0.5-0.5-1-0.6-1.7-0.4c-1.4,0.3-1.2,1.4-1.4,2.3
		c-1.1,5-4.4,7.7-9.3,7c-2-0.3-3.9-1.4-5.9-2.1c-0.3-0.1-0.8-0.4-0.9-0.3c-1.3,0.9-3.4,1.1-3.3,3.4c0,0.1,0,0.2,0,0.4
		c-1.7,7.3-9.9,9.3-14.6,5.2c-1.8-1.6-1.9-1.8-0.3-3.6c1.4-1.7,1.4-4.1-0.2-5.9c-1.4-1.6-2.8-1.7-5-0.3c-0.2,0.2-0.5,0.3-0.7,0.5
		c-1.4,1-1.4,1-2.3-0.4c-0.8-1.3-1.9-1.7-3.5-1.3c-1.5,0.3-2.4,1.2-2.4,2.7c-0.1,2.4-0.1,4.7,0,7.1c0.1,1.6,1.1,2.4,2.6,2.3
		c1.5,0,2.5-0.8,3.3-2c0.9-1.4,1.1-1.4,2.3-0.1c1.3,1.4,2.6,2.8,4,4.2c3.8,3.9,11.7,4.7,16,0.5c1.8-1.8,3.2-3.9,4.2-6.2
		c0.5-1.1,1.1-1.4,2.2-1.1c1.9,0.5,3.9,1.1,5.8,1.2c4.4,0.4,8.2-1.1,9.5-5.9c0.2-0.6,0.4-1.2,0.6-1.8c0.4-1.2,0.6-1.2,1.7-0.6
		c2.2,1.4,4.6,2.3,7.2,2.4c5.6,0.1,10.1-2,12.5-7.4c0.3-0.7,0.8-0.9,1.4-0.3c0.3,0.3,0.5,0.5,0.8,0.8c4,4,10.3,4.6,14.9,1.2
		c1.3-0.9,2.2-2.3,3.2-3.5c0.7-0.8,1.1-0.9,1.8-0.1c0.2,0.3,0.4,0.6,0.6,0.9c3,4,7,5.4,11.8,4.6c2.5-0.4,4.5-1.9,6.3-3.6
		c0.9-0.9,1.2-0.8,1.7,0.3c0.3,0.6,0.6,1.3,1,1.9c4.1,5.6,11.7,7,17.8,3.3c1.9-1.2,1.9-1.4,2.6,1.1c1.4,5.1,4.2,7.1,9.5,6.8
		c2.1-0.1,4.2-0.8,6.3-1.3c1.1-0.3,1.7-0.1,2.2,1c0.5,1.2,1.1,2.5,1.9,3.6c2.1,2.9,4.5,5.3,8.4,5.5c4,0.2,7.5-0.6,10.3-3.6
		c1.3-1.4,2.6-2.8,3.9-4.2c0.7-0.7,1.1-0.7,1.8,0.2c0.6,0.8,1.3,1.6,2.1,2c2.1,1.1,4-0.1,4-2.4C220.7,81.4,220.7,80.4,220.7,79.3z
		 M68.7,101.9c0.3,0.3,1,0.6,1.4,1.1c0.5,0.7,0.2,1.4-0.3,2.1c-1,1.1-2,2.3-3.1,3.4c-0.9,0.9,0.1,1.4,0.4,2c0.4,0.7,0.9,0.5,1.4,0.2
		c4.4-2.4,8.8-4.9,13.3-7.1c13.4-6.4,27.5-10,42.3-10.4c8.4-0.2,16.7,0,24.9,1.8c13.8,3.1,26.8,8.2,38.7,15.8c0.6,0.4,1,0.6,1.5-0.1
		c0.4-0.6,0.9-1,0.1-1.8c-1.2-1.1-2.3-2.4-3.2-3.7c-0.3-0.5-0.4-1.5-0.2-1.9c0.3-0.5,1.1-0.9,1.7-0.9c1.4,0,2.9,0.3,4.3,0.5
		c1.9,0.3,1.9,0.3,2.7-1.4c0.4-0.8,0.4-1.2-0.5-1.7c-18.1-10.6-37.5-17.3-58.5-19.1c-10.8-0.9-21.4-0.2-31.9,2.1
		C89.4,86,75.9,91.2,63,98.3c-2.3,1.3-2.3,1.2-1.1,3.6c0.4,0.8,0.9,1,1.7,0.8C65.2,102.4,66.7,102.2,68.7,101.9z M129.7,75.4
		c-11.7-0.2-21,1-30.2,3c-14.2,3-27.7,8-40.5,14.7c-2.6,1.4-5,3.1-7.5,4.7c-1,0.7-1,1.4-0.1,2.3c1,1,2.2,1.1,3.7,0.2
		c7.4-4.4,15-8.4,23-11.7C91.9,83,106,79,121,78c7.8-0.5,15.6-0.1,23.3,1.1c7.5,1.1,14.7,3.1,21.8,5.4c10.4,3.3,20.2,8,29.6,13.4
		c1.9,1.1,3.7,2.2,5.6,3.2c1.1,0.6,2.6,0.1,3.2-1c0.5-0.9,0.2-1.8-0.9-2.6c-0.9-0.6-1.8-1.2-2.7-1.8c-7.2-3.9-14.4-7.6-22.1-10.5
		C162.2,79.1,145.2,75.2,129.7,75.4z M128.6,95c-1.2,0.1-2.2,0.2-3.3,0.2c-7.3,0.2-14.5,1.1-21.6,2.9c-12.8,3.2-24.9,8.1-35.8,15.6
		c-0.9,0.6-1.7,1.4-2.5,2.2c-0.9,1-0.8,1.9,0.1,2.7c0.8,0.8,1.7,0.7,2.6,0c0.9-0.6,1.7-1.3,2.6-1.9c10-6.3,20.5-11.3,31.9-14.5
		c10.5-2.9,21.2-4.3,32.1-3.4c13.4,1.1,26,5.2,38,10.9c5.4,2.6,10.4,6.1,15.5,9.3c1.3,0.8,2.2,0.8,3-0.2c0.7-0.9,0.6-2-0.5-3
		c-0.9-0.8-1.8-1.6-2.8-2.2C170,101.6,150.1,95.9,128.6,95z M122.8,42c-0.6,0-1.1,0-1.7,0c-2,0-2.9,0.9-2.9,2.8c0,1.5,0,3,0,4.6
		c0.1,1.8,1,2.7,2.8,2.7c0.5,0,1.1,0,1.8,0c0,0.6,0,1.1,0,1.7c0,1.8,0.7,2.7,2.5,2.8c1.7,0.1,3.4,0.1,5,0c1.7-0.1,2.4-0.9,2.5-2.6
		c0-0.6,0-1.2,0-1.9c0.7,0,1.3,0,1.8,0c1.7-0.1,2.5-0.8,2.6-2.5c0.1-1.8,0.1-3.6,0-5.4c-0.1-1.4-1-2.2-2.4-2.2c-0.6,0-1.2,0-1.9,0
		c0-0.6,0-1,0-1.5c0-2.2-0.9-3-3.1-3c-1.3,0-2.6,0-4,0c-2.3,0-3.1,0.8-3.1,3.1C122.8,41,122.8,41.4,122.8,42z M40.2,153.7
		c0-7.7,0-15.3,0-22.8c-3.9,0-7.8,0-11.6,0c0,7.7,0,15.2,0,22.8C32.5,153.7,36.3,153.7,40.2,153.7z M215.1,130.8
		c0,7.7,0,15.3,0,22.9c3.9,0,7.8,0,11.6,0c0-7.7,0-15.2,0-22.9C222.9,130.8,219,130.8,215.1,130.8z M139.2,143.4
		c12.5,0,24.8,0,37.2,0c0-2,0-3.9,0-5.8c-12.4,0-24.8,0-37.2,0C139.2,139.5,139.2,141.4,139.2,143.4z M116.1,143.4c0-2,0-4,0-5.9
		c-12.4,0-24.8,0-37.2,0c0,2,0,3.9,0,5.9C91.3,143.4,103.7,143.4,116.1,143.4z M170.4,51.1c-1.1,0-1.7,0.4-2.1,1.3
		c-0.6,1.4-1.1,2.8-1.5,4.3c-0.4,1.4-0.1,2.2,1.3,2.8c1.2,0.4,1.5,1,1.1,2.2c-0.5,1.5-0.1,2.3,1.4,2.9c1.3,0.5,2.5,1,3.8,1.4
		c1.6,0.5,2.4,0.2,2.9-1.3c0.4-1.1,1-1.4,2.1-1c1.6,0.5,2.4,0,3-1.5c0.5-1.2,0.9-2.4,1.3-3.6c0.6-1.7,0.3-2.6-1.4-3.2
		c-1-0.4-1.2-0.9-0.9-1.9c0.5-1.5,0.2-2.4-1-2.9c-1.5-0.6-3-1.2-4.5-1.6c-0.8-0.3-1.7-0.2-2.2,0.7c-0.4,0.7-0.6,1.7-1.1,2
		C171.9,51.7,171,51.2,170.4,51.1z M80.5,48.5c-1.2,0.4-2.8,0.9-4.3,1.5c-1.6,0.6-2.1,1.4-1.5,3.1c0.4,1.1,0.1,1.6-0.9,2
		c-1.6,0.6-1.9,1.4-1.4,3c0.4,1.3,0.9,2.6,1.4,3.8c0.6,1.5,1.3,1.9,2.9,1.4c1.1-0.3,1.7-0.2,2.1,1c0.5,1.4,1.5,1.8,3,1.3
		c1.2-0.4,2.4-0.8,3.6-1.3c1.8-0.6,2.2-1.4,1.6-3.2c-0.4-1-0.1-1.5,0.9-1.8c1.6-0.6,2-1.5,1.5-3.1c-0.4-1.2-0.8-2.4-1.3-3.6
		c-0.7-1.7-1.4-2.1-3.1-1.5c-1.1,0.4-1.6,0.1-1.9-1C82.6,49.2,82.1,48.5,80.5,48.5z M68.2,67.6c0-4.1-3-7.1-7.1-7.2
		c-4.2,0-7.2,3-7.2,7.2c0,4.2,2.9,7.2,7.1,7.2C65.3,74.8,68.2,71.9,68.2,67.6z M144.4,53.3c0,4.2,3,7.2,7.2,7.1c4.2,0,7.2-3,7.1-7.2
		c-0.1-4.1-3.1-7.1-7.1-7.1C147.4,46.1,144.4,49.1,144.4,53.3z M96.5,53.3c0,4.2,2.9,7.2,7.2,7.2c4.2,0,7.2-3,7.2-7.2
		c0-4.1-3-7.1-7.1-7.2C99.6,46.1,96.5,49.1,96.5,53.3z M194.9,74.7c4.2,0,7.2-2.9,7.1-7.2c0-4.1-3.1-7.1-7.1-7.1
		c-4.1,0-7.2,3-7.2,7.2C187.7,71.8,190.6,74.7,194.9,74.7z M188,143.4c8.3,0,16.4,0,24.6,0c0-2,0-3.9,0-5.9c-8.2,0-16.4,0-24.6,0
		C188,139.5,188,141.4,188,143.4z M42.8,137.5c0,2.1,0,4,0,5.9c8.2,0,16.4,0,24.6,0c0-2,0-3.9,0-5.9C59.2,137.5,51,137.5,42.8,137.5
		z M127.1,258.6c1.7,0.1,3-0.7,4.1-1.9c0.9-1,1.6-2.1,2.4-3.2c2.5-3.9,3.2-8,1.5-12.4c-0.2-0.5-0.8-1.2-1.2-1.2
		c-2.3-0.3-6,1.6-5.7,4.7c0.2,2.3-0.6,4.2-2.3,5.8c-0.4,0.4-0.8,1-0.7,1.4c0.3,1.9,0,3.5-0.9,5.2c-0.4,0.6,0,1.1,0.6,1.3
		C125.5,258.4,126.3,258.5,127.1,258.6z M134.6,230.5c-4.1,0.2-7.6,1.1-10.5,3.7c-3.1,2.8-3.5,5.1,0.6,8.1c0.1,0.1,0.2,0.1,0.3,0.2
		c1,0.6,1.7,0.4,2.3-0.6c1.4-2.3,3.6-3.4,6.3-3.5c0.5,0,1.1-0.2,1.4-0.5c1.4-1.5,3.2-2.4,5.2-2.9c1.2-0.3,1.3-0.9,0.6-1.9
		C139.2,230.6,136.7,230.5,134.6,230.5z M77.6,149.2c0-4.8,0-9.5,0-14.3c-3,0-6,0-8.9,0c0,4.8,0,9.5,0,14.3
		C71.7,149.2,74.6,149.2,77.6,149.2z M117.4,149.1c3.1,0,6,0,9,0c0-4.8,0-9.4,0-14.1c-3,0-6,0-9,0
		C117.4,139.7,117.4,144.4,117.4,149.1z M139.2,146.1c0,1.6,0,3.1,0,4.5c9.7,0,19.3,0,28.9,0c0-0.1,0.1-0.2,0.1-0.3
		c-1.6-1.2-3.1-2.4-4.7-3.6c-0.6-0.4-1.4-0.7-2.1-0.7c-7,0-14,0-21,0C140.1,146.1,139.7,146.1,139.2,146.1z M87.3,150.3
		c0.1,0.1,0.1,0.2,0.2,0.3c9.5,0,19.1,0,28.7,0c0-1.5,0-3,0-4.4c-0.2,0-0.3-0.1-0.4-0.1c-7.4,0-14.7,0-22.1,0c-0.2,0-0.5,0-0.7,0.1
		C91,147.5,89.1,148.9,87.3,150.3z M132.9,257.3c0.1,0.1,0.1,0.2,0.2,0.3c0.4-0.1,0.8-0.1,1.2-0.2c7.7-3.3,11.9-12.3,8.5-20.4
		c-0.2-0.4-0.9-0.9-1.3-0.8c-1.8,0.2-3.5,0.8-4.8,2.1c-0.6,0.5-0.7,1.1-0.4,1.8c0.4,0.9,0.8,1.8,1,2.7c1,4.9-0.4,9.1-3.4,13
		C133.5,256.2,133.2,256.8,132.9,257.3z M127,245.6c-0.6-0.6-1-1.2-1.5-1.4c-2.1-0.9-3.7-2.3-4.7-4.4c-0.2-0.4-0.7-0.8-1.1-1
		c-1.4-0.9-2.9-1.7-4.3-2.7c-1-0.7-1.4-0.7-1.8,0.4c-0.5,1.4-0.9,2.8-1.3,4.2c-0.1,0.3,0,0.8,0.2,1c0.7,1.1,1.4,2.3,2.3,3.2
		c2.2,2.3,5.1,3.7,8.1,4.7c0.7,0.2,1.8,0,2.3-0.5C125.8,248.2,126.2,246.9,127,245.6z M134.1,228.9c0-0.2,0-0.4,0.1-0.5
		c-0.4-0.2-0.8-0.5-1.2-0.6c-2.5-0.6-5-1.1-7.6-0.6c-3.9,0.7-7.1,2.6-9.7,5.5c-0.7,0.8-0.7,1.5,0.2,2.1c1,0.7,1.9,1.4,2.9,2.1
		c0.8,0.6,1.4,0.4,1.9-0.5c0.4-0.8,0.9-1.6,1.5-2.3c2.3-2.6,5.4-3.9,8.7-4.6C132.1,229.3,133.1,229.1,134.1,228.9z M112.6,245.5
		c-0.1,0.3-0.1,0.5-0.1,0.6c0,0.2,0,0.3,0,0.5c1.3,4.6,4,8.1,8.4,10.2c0.4,0.2,1,0.2,1.3,0c1.3-0.9,1.5-2.3,1.5-3.7
		c0-1.2-0.7-1.8-1.8-2.2c-2.9-1.1-5.5-2.5-7.8-4.5C113.7,246,113.2,245.8,112.6,245.5z M187.6,103.8c0,0.1-0.1,0.2-0.1,0.3
		c1,1.1,2.1,2.2,3,3.4c1,1.2,2.2,1.9,3.7,2.1c1.5,0.2,3,0.6,4.5,0.8c0.1-0.1,0.1-0.2,0.2-0.3c-1.4-1.7-2.8-3.4-4.3-5.1
		c-0.1-0.1-0.3-0.2-0.4-0.2C191.9,104.5,189.7,104.2,187.6,103.8z M57,110.1c0.1,0.1,0.1,0.1,0.2,0.2c0.8-0.2,1.7-0.4,2.6-0.5
		c3.4-0.1,5.6-2,7.5-4.5c0.4-0.5,0.8-1,1.4-1.7c-2.3,0.3-4.3,0.5-6.2,0.9c-0.6,0.1-1.2,0.4-1.5,0.9C59.6,106.9,58.3,108.5,57,110.1z
		 M85.8,146.2c-2.4,0-4.6,0-6.8,0c0,1.5,0,2.9,0,4.5c0.9-0.2,1.8-0.1,2.4-0.5C82.9,149,84.3,147.6,85.8,146.2z M176.4,146.2
		c-2.3,0-4.4,0-6.7,0c1.4,1.3,2.7,2.3,3.9,3.6c0.8,0.9,1.7,1,2.8,0.7C176.4,149.1,176.4,147.7,176.4,146.2z"/>
	<path class="st0" d="M128.7,152.3c21.3,0,42.4,0,63.7,0c-21.2,49-42.3,97.8-63.4,146.6c-0.1,0-0.2,0-0.3-0.1c0-12.8,0-25.6,0-38.5
		c5.4-0.6,10.1-2.8,13.4-7.4c2.5-3.5,3.8-7.6,3.2-11.8c-1.2-8.3-6.3-14.8-16.6-15.9C128.7,201,128.7,176.6,128.7,152.3z"/>
	<path class="st0" d="M213,156.3c0.3,0.3,0.8,0.7,1.1,1.2c4,8.6,6.6,17.6,7.9,27.1c0.9,6.6,1.2,13.3,0.6,20
		c-1.6,19.4-8.3,36.9-20.4,52.1c-12.7,15.9-28.9,26.7-48.5,32.4c-6.1,1.7-12.3,2.8-18.6,3.3c-0.2,0-0.5,0-0.8,0
		c0.1-0.4,0.2-0.8,0.4-1.2c4.3-9.9,8.6-19.8,12.9-29.7c0.2-0.5,0.8-1.1,1.3-1.3c23.6-8.8,38.4-25.4,43.7-50
		c2.9-13.7,1.2-27.1-4.6-39.9c-0.4-0.9-0.4-1.6,0-2.5c2.4-5.4,4.7-10.7,7.1-16.1c0.1-0.3,0.2-0.5,0.4-0.9c-2.5,0-4.9,0-7.4,0
		c0-1.6,0-3.1,0-4.6c0.4,0,0.7-0.1,1.1-0.1c5.9,0,11.8,0,17.6,0c0.8,0,1.3,0.2,1.7,1c1,1.8,2.1,3.6,3.1,5.4
		C212.2,153.6,212.5,154.9,213,156.3z M201.5,232.5c0.2,0.5,0.3,0.8,0.4,1.1c0.7,1.9,2.5,3,4.5,2.8c2-0.2,3.2-1.4,4-3.1
		c0.9-1.9,1.6-3.9,2.5-5.8c0.4-0.9,0.3-1.3-0.7-1.7c-3.8-1.5-7.6-3.1-11.4-4.6c-1.3-0.5-2.6-1.1-4-1.6c-1,2.7-2.1,5.2-2.9,7.7
		c-1,3.1,0.1,5.6,2.9,6.5C198.6,234.5,200.1,233.9,201.5,232.5z M193.9,255c5,0.1,8.8-4.5,7.8-9.4c-0.8-3.9-4.5-7.1-9-7.9
		c-4.2-0.7-9,2.9-8.7,8.1C184.2,250.6,189,254.8,193.9,255z M218,200c-0.1-1.2-0.2-2.3-0.3-3.5c-0.5,0-0.9,0-1.3,0
		c-3.4,0.2-6.8,0.4-10.2,0.5c-1.7,0.1-2.7-0.6-3.2-1.8c-0.8-2.2,0.4-4.1,2.8-4.4c1.4-0.2,2.9-0.2,4.3-0.3c2.4-0.2,4.8-0.3,7.3-0.5
		c-0.1-1.3-0.2-2.4-0.3-3.6c-4,0.2-8,0.4-12,0.8c-3.3,0.3-5.3,2.3-5.6,5.7c-0.4,4,1.5,7.6,6.5,7.6c2.6,0,5.1-0.2,7.7-0.3
		C215.1,200.2,216.4,200.1,218,200z M196.7,176.9c2.3-0.7,4.5-1.3,6.8-1.9c0.7,2.2,1.3,4.4,2,6.6c1.1-0.3,2.1-0.6,3.1-0.9
		c-0.6-2.2-1.2-4.3-1.9-6.6c1.3-0.4,2.6-0.7,3.9-1.1c0.8,2.5,1.5,5,2.2,7.5c1.1-0.3,2.1-0.6,3.1-0.9c-1.1-3.7-2.1-7.3-3.2-10.9
		c-5.7,1.7-11.4,3.3-17.1,4.9C196.1,174.6,196.4,175.7,196.7,176.9z M198.6,212.1c4.8,0.8,9.5,1.7,14.2,2.5c-0.2,1.6-0.4,3-0.7,4.5
		c1.1,0.2,2.1,0.3,3.2,0.5c0.7-4.2,1.4-8.2,2.1-12.3c-1.2-0.2-2.2-0.4-3.2-0.5c-0.3,1.5-0.5,2.9-0.8,4.4c-4.8-0.8-9.5-1.6-14.3-2.4
		C199,209.8,198.8,210.8,198.6,212.1z M178.1,249.9c-2.8,2.4-5.5,4.7-8.3,7c0.8,0.9,1.4,1.7,2.1,2.5c1.9-1.6,3.7-3.1,5.5-4.6
		c3.2,3.8,6.2,7.4,9.4,11.1c0.9-0.8,1.8-1.5,2.7-2.3C185.7,259,182,254.5,178.1,249.9z"/>
	<path class="st0" d="M67.4,146.2c0,1.5,0,2.9,0,4.5c-2.3,0-4.5,0-6.9,0c0.2,0.4,0.3,0.7,0.4,1c2.3,5.3,4.6,10.7,6.9,16
		c0.2,0.6,0.2,1.4,0,2c-4.4,9.7-6.6,19.9-6,30.6c0.9,17.7,7.7,32.8,20.6,45.1c7.1,6.8,15.3,11.7,24.6,14.8c0.5,0.2,1.1,0.6,1.4,1.1
		c4.4,10.2,8.8,20.3,13.2,30.5c0,0.1,0.1,0.2,0.2,0.5c-1.7-0.1-3.2-0.2-4.8-0.4c-15.4-1.8-29.7-7-42.5-15.8
		c-21.4-14.8-34.8-35-40-60.4c-1.9-9-2.2-18.2-1.3-27.4c1-10.7,3.8-21,8.3-30.8c0.2-0.4,0.7-0.7,1-1.1c0.2-0.2,0.2-0.4,0.3-0.7
		c0.2-0.7,0.3-1.6,0.7-2.2c1.2-2.2,2.5-4.5,3.8-6.6c0.2-0.4,0.8-0.8,1.2-0.8c6.2,0,12.4,0,18.6,0C67.1,146.1,67.2,146.2,67.4,146.2z
		 M86.8,257.1c-1.8-1.5-3.5-3.1-5.3-4.5c-0.9-0.7-1.9-1.3-3-1.7c-1.7-0.7-3.3-0.3-4.6,1c-1.3,1.3-1.8,2.9-1.1,4.7
		c0.1,0.3,0.2,0.6,0.3,0.9c-2.2-0.1-3.9,0.6-4.8,2.6c-0.9,1.8-0.5,3.5,0.7,4.8c2,2,4.2,3.9,6.4,5.8C79.2,266.1,83,261.7,86.8,257.1z
		 M54.7,225.1c-0.5-0.3-0.8-0.6-1.2-0.8c-2.3-1.2-4.4-0.8-6.4,0.6c-1.9,1.3-2.7,3.1-2.1,5.2c0.8,2.8,2,5.5,3,8.3
		c5.6-2.4,11-4.6,16.5-6.9c-0.5-1.1-0.9-2.2-1.4-3.3c-1,0.4-1.9,0.8-2.7,1.1c-0.9,0.4-1.7,0.7-2.6,1.1c-1.1-2-1.1-2,0.2-3.8
		c0.8-1,1.5-1.9,2.3-2.9c0.2-0.3,0.5-0.8,0.4-1c-0.4-1.1-0.9-2.2-1.4-3.5C57.7,221.2,56.2,223.1,54.7,225.1z M47.6,181.9
		c-0.4,0-0.9,0-1.3,0c-3.6,0.2-6.4,2.7-7.3,6.6c-0.7,2.9,1,6.4,3.9,8.1c2.2,1.2,4.5,1.6,6.9,1.4c3.1-0.3,5.5-1.7,6.8-4.7
		c1.3-2.9,0.9-5.7-1.2-8.2C53.4,182.7,50.7,181.9,47.6,181.9z M40.6,205.1c-1.6,2.4-1.7,4.8-0.8,7.4c1.4,4.1,5,6,9.9,5.4
		c6.7-0.8,10-7.1,6.7-12.9c-1-1.8-2.1-3-4.5-2.3c-1.8,0.5-3.7,0.7-5.7,1c0.4,2.3,0.7,4.4,1.1,6.6c1.1-0.2,2-0.3,3-0.5
		c-0.1-1.1-0.2-2.1-0.3-3.2c0.7-0.1,1.3-0.1,1.8-0.3c1.2-0.4,1.8,0.2,2.2,1.2c0.8,1.9,0.2,4.2-1.5,5.4c-2,1.4-4.3,1.8-6.6,1.1
		c-2.1-0.6-3.2-2.1-3.1-4.3c0-1,0.4-2.1,0.6-3.2C42.5,206.1,41.6,205.6,40.6,205.1z M54.2,248.6c0.8-0.6,1.5-1.1,2.2-1.6
		c2.5-1.8,4.9-3.6,7.4-5.3c1.8-1.2,3.6-0.5,4.5,1.3c0.6,1.3,0.3,2.7-1,3.8c-1.3,1.1-2.7,2-4,3c-1.7,1.3-3.5,2.6-5.3,3.9
		c0.7,1,1.4,1.9,2.1,2.9c0.9-0.7,1.7-1.3,2.6-1.9c2.2-1.6,4.5-3.2,6.6-4.9c1.6-1.2,2.9-2.7,2.9-4.9c0-2.9-1.3-5.2-3.8-6.6
		c-2.5-1.4-4.8-0.9-7.1,0.7c-2.5,1.8-5,3.6-7.4,5.4c-0.6,0.4-1.1,0.9-1.7,1.3C52.9,246.8,53.5,247.6,54.2,248.6z M47.6,163.8
		c-2.7,1.7-4.3,4.1-4.3,7.2c0,2,1,3.6,2.9,4.5c1.8,0.8,3.5,0.6,5-0.7c1.3-1.1,2.5-2.4,3.7-3.6c0.7-0.7,1.4-1.1,2.3-0.5
		c0.9,0.5,1.1,1.5,0.7,2.3c-0.4,1-1.1,1.9-1.8,2.7c-0.4,0.5-1,0.8-1.5,1.2c0.6,0.9,1.2,1.8,1.7,2.7c2.5-1.3,4.1-3.3,4.8-5.8
		c0.8-2.9-0.1-5.2-2.3-6.4c-2.4-1.3-4.3-0.9-6.5,1.3c-1,1-1.9,1.9-2.9,2.9c-0.7,0.7-1.5,0.8-2.3,0.2c-0.8-0.6-0.8-1.4-0.3-2.1
		c0.7-1.2,1.6-2.2,2.5-3.5C48.8,165.6,48.2,164.8,47.6,163.8z"/>
	<path class="st0" d="M79,135.1c-0.1-0.5-0.1-0.9-0.1-1.3c-3.8,0-7.5,0-11.3,0c-0.1,0.4-0.1,0.8-0.2,1.3c-3.7,0-7.4,0-11.3,0
		c7.7-8.8,16.5-15.8,26.6-21.3c10.1-5.4,20.8-9.1,32.1-10.5c33.6-4,61.7,6.8,84.6,31.3c0,0.1-0.1,0.3-0.1,0.4c-3.7,0-7.5,0-11.3,0
		c0-0.4-0.1-0.8-0.1-1.3c-3.8,0-7.5,0-11.3,0c-0.1,0.4-0.1,0.8-0.2,1.4c-0.4,0-0.9,0-1.3,0c-8,0-16.1,0-24.1,0
		c-0.9,0-1.8-0.1-2.7-0.4c-8.3-2.7-16.8-3.6-25.4-3.1c-5.2,0.3-10.3,1.4-15.2,2.9c-1.1,0.3-2.3,0.5-3.4,0.5c-7.9,0-15.8,0-23.8,0
		C80,135.1,79.5,135.1,79,135.1z M150.8,111.2c-1.9,5.8-3.8,11.4-5.6,17.1c0.8,0.3,1.5,0.5,2.2,0.7c2.3,0.6,4.5,1.4,6.8,1.8
		c2.2,0.4,3.9-0.6,4.8-2.4c1-2,0.7-3.6-0.8-5.4c-0.1-0.1-0.2-0.3-0.3-0.5c0.2-0.1,0.4-0.2,0.5-0.3c2-0.7,3-2.1,3.1-4
		c0.1-2-0.9-3.4-2.6-4.1C156.1,113.2,153.5,112.3,150.8,111.2z M142.4,109.8c-1.3-0.1-2.4-0.2-3.5-0.3c-0.1,0.7-0.1,1.3-0.2,2
		c-0.3,3.3-0.6,6.7-1,10c-0.2,1.6-1.2,2.4-2.8,2.4c-2.2,0.1-3.6-1.4-3.4-3.8c0.2-2.2,0.4-4.4,0.6-6.6c0.1-1.5,0.2-3,0.3-4.5
		c-1.2-0.1-2.3-0.3-3.6-0.4c-0.3,4.3-0.5,8.5-0.7,12.7c-0.1,2.4,1.1,4.1,3.1,5.2c1.8,1,3.7,1,5.7,0.5c2.3-0.5,3.6-1.9,4.1-4.2
		c0.3-1.4,0.5-2.9,0.6-4.4C142,115.6,142.2,112.7,142.4,109.8z M105.4,113.9c-0.2-0.1-0.4-0.3-0.6-0.3c-4.1-1.7-9.3,0.8-10.4,5.3
		c-1,3.8,0.3,7,2.7,9.9c1.6,1.9,3.6,2.8,6.2,2.6c3.1-0.2,6-2.4,6.6-5.1c-0.9-0.5-1.8-1-2.7-1.5c-0.2,0.3-0.4,0.6-0.5,0.8
		c-1.9,3-4.9,3.1-7.1,0.4c-1.2-1.5-1.8-3.3-1.8-5.2c0-2.9,1.9-4.6,4.8-4.1c0.6,0.1,1.2,0.2,1.8,0.3
		C104.8,115.9,105.1,114.9,105.4,113.9z M114.2,128c3.7-0.5,7.1-0.9,10.7-1.4c-0.1-1.1-0.3-2.2-0.4-3.2c-2.4,0.3-4.7,0.6-7.1,0.9
		c-0.7-4.8-1.3-9.6-2-14.4c-1.3,0.2-2.4,0.4-3.5,0.6C112.7,116.3,113.4,122.1,114.2,128z"/>
	<path class="st0" d="M105.3,255.5C90.9,249.6,79.8,240,72.6,226c-8.7-17-9.1-34.4-2.4-52.1c0.1,0,0.3-0.1,0.4-0.1
		c11.7,27.1,23.4,54.2,35.1,81.3C105.6,255.3,105.5,255.4,105.3,255.5z"/>
	<path class="st0" d="M185.6,174.5c5.9,15.8,6,31.6-0.6,47.1c-6.8,16-18.5,27.1-34.4,33.7c-0.1-0.1-0.2-0.1-0.3-0.2
		c11.6-26.9,23.2-53.8,34.9-80.7C185.2,174.5,185.4,174.5,185.6,174.5z"/>
	<path class="st0" d="M220.7,79.3c0,1.1,0,2.2,0,3.2c0,2.4-1.9,3.6-4,2.4c-0.8-0.5-1.6-1.2-2.1-2c-0.6-0.9-1.1-0.9-1.8-0.2
		c-1.3,1.4-2.6,2.8-3.9,4.2c-2.8,3.1-6.4,3.9-10.3,3.6c-3.9-0.2-6.3-2.6-8.4-5.5c-0.8-1.1-1.3-2.3-1.9-3.6c-0.5-1-1.1-1.3-2.2-1
		c-2.1,0.5-4.2,1.2-6.3,1.3c-5.3,0.3-8-1.7-9.5-6.8c-0.7-2.5-0.7-2.3-2.6-1.1c-6.1,3.7-13.7,2.3-17.8-3.3c-0.4-0.6-0.7-1.3-1-1.9
		c-0.5-1.1-0.9-1.2-1.7-0.3c-1.8,1.8-3.8,3.2-6.3,3.6c-4.8,0.8-8.8-0.6-11.8-4.6c-0.2-0.3-0.4-0.6-0.6-0.9c-0.7-0.8-1.1-0.8-1.8,0.1
		c-1,1.2-2,2.5-3.2,3.5c-4.6,3.4-10.8,2.8-14.9-1.2c-0.3-0.3-0.5-0.5-0.8-0.8c-0.6-0.6-1-0.4-1.4,0.3c-2.4,5.4-6.8,7.5-12.5,7.4
		c-2.6-0.1-5-1-7.2-2.4c-1-0.7-1.3-0.6-1.7,0.6c-0.2,0.6-0.4,1.2-0.6,1.8c-1.3,4.8-5.1,6.3-9.5,5.9c-2-0.2-3.9-0.7-5.8-1.2
		c-1.1-0.3-1.8,0-2.2,1.1c-1,2.3-2.3,4.4-4.2,6.2c-4.3,4.2-12.2,3.4-16-0.5c-1.3-1.4-2.7-2.8-4-4.2c-1.2-1.3-1.3-1.3-2.3,0.1
		c-0.8,1.2-1.8,2-3.3,2c-1.6,0-2.6-0.7-2.6-2.3c-0.1-2.4-0.1-4.7,0-7.1c0-1.5,0.9-2.4,2.4-2.7c1.6-0.4,2.7,0,3.5,1.3
		c0.9,1.4,0.9,1.4,2.3,0.4c0.2-0.2,0.5-0.3,0.7-0.5c2.2-1.4,3.5-1.4,5,0.3c1.6,1.8,1.6,4.3,0.2,5.9c-1.6,1.8-1.5,2,0.3,3.6
		c4.7,4.1,12.9,2.1,14.6-5.2c0-0.1,0.1-0.2,0-0.4c-0.1-2.3,1.9-2.5,3.3-3.4c0.2-0.1,0.6,0.2,0.9,0.3c2,0.7,3.9,1.8,5.9,2.1
		c4.9,0.7,8.2-2,9.3-7c0.2-0.9,0-2,1.4-2.3c0.7-0.1,1.2-0.1,1.7,0.4c1.7,1.8,3.7,3,6.2,3.5c4,0.8,7.2-0.7,9.4-4
		c0.9-1.4,1.4-3,2.1-4.5c0.2-0.4,0.6-0.9,0.8-0.9c0.9,0.1,1.8-1,2.6,0.2c1.5,2,3.4,3.5,5.8,4.5c4.5,2,8.4,0.3,10.9-2.9
		c0.9-1.1,1.6-2.4,2.3-3.7c0.5-1,1.3-0.7,1.9-0.7c0.4,0,0.9,0.4,1.1,0.8c1.2,1.5,2.1,3.2,3.4,4.6c2.7,2.8,5.9,3.4,9.5,2
		c2.4-0.9,4.4-2.4,5.9-4.4c0.9-1.3,2-0.4,3-0.4c0.2,0,0.6,0.8,0.8,1.2c1.2,4.2,3.5,7.5,8.1,8.3c3.3,0.6,6.1-0.8,8.7-2.9
		c0.3-0.3,0.6-0.7,1-0.9c0.4-0.2,1-0.3,1.3-0.2c0.4,0.2,0.9,0.6,1,1.1c0.3,0.7,0.3,1.6,0.6,2.3c1.7,4.7,5.5,7.5,11.3,5.6
		c1.5-0.5,2.8-1.3,4.2-1.9c0.4-0.2,0.9-0.1,1.3,0c1.8,0.6,2.4,1.9,2.7,3.8c0.6,3.5,2.8,5.9,6.2,6.9c3.5,1,6.5,0.1,9.1-2.5
		c1.1-1.1,1.1-1.4-0.1-2.4c-2.1-1.9-1.9-5.2,0.3-6.9c1-0.8,2.1-1,3.2-0.4c0.8,0.4,1.5,0.9,2.2,1.4c0.8,0.6,1.2,0.6,1.7-0.4
		c0.9-1.9,2.8-2.4,4.6-1.3c0.8,0.5,1.4,1.2,1.4,2.2c0,1.2,0,2.3,0,3.5C220.6,79.3,220.7,79.3,220.7,79.3z"/>
	<path class="st0" d="M68.7,101.9c-2,0.3-3.5,0.5-5,0.8c-0.8,0.1-1.3,0-1.7-0.8c-1.2-2.3-1.3-2.3,1.1-3.6
		c12.9-7.1,26.4-12.3,40.8-15.6c10.5-2.4,21.2-3.1,31.9-2.1c21,1.8,40.4,8.5,58.5,19.1c0.8,0.5,0.9,0.9,0.5,1.7
		c-0.9,1.7-0.9,1.7-2.7,1.4c-1.4-0.2-2.8-0.5-4.3-0.5c-0.6,0-1.5,0.4-1.7,0.9c-0.3,0.5-0.2,1.5,0.2,1.9c1,1.3,2.1,2.5,3.2,3.7
		c0.8,0.8,0.3,1.2-0.1,1.8c-0.5,0.7-0.9,0.5-1.5,0.1c-11.9-7.6-24.9-12.7-38.7-15.8c-8.2-1.8-16.6-2-24.9-1.8
		c-14.9,0.4-29,4-42.3,10.4c-4.5,2.2-8.9,4.7-13.3,7.1c-0.5,0.3-1,0.5-1.4-0.2c-0.3-0.6-1.4-1.1-0.4-2c1.1-1.1,2.1-2.2,3.1-3.4
		c0.5-0.6,0.9-1.4,0.3-2.1C69.7,102.5,69,102.2,68.7,101.9z M84.7,93.8c0,2.7,2,4.5,4.6,3.9c3.3-0.8,6.6-1.8,9.9-2.8
		c1.3-0.4,2.7-0.9,3.9-1.6c1.7-0.9,2.2-2.9,1.4-4.8c-0.8-1.8-2.6-2.8-4.4-2.3c-4.3,1.3-8.5,2.6-12.8,3.9
		C85.7,90.7,84.7,92.2,84.7,93.8z M166.4,97.7c2.6,0,4.2-1.2,4.6-3.4c0.3-1.8-0.9-3.7-2.9-4.4c-4.1-1.3-8.2-2.5-12.2-3.7
		c-1.2-0.4-2.4-0.2-3.4,0.7c-2.5,2.1-1.8,5.7,1.4,6.8c3.8,1.3,7.7,2.5,11.5,3.7C165.7,97.6,166.2,97.7,166.4,97.7z M128.1,91.9
		c0.4-0.2,0.8-0.3,1.1-0.4c1.6-0.8,3.2-1.7,4.7-2.6c1.7-1,1.7-2.6,0.1-3.7c-1.5-1-3.1-2-4.6-3c-0.9-0.6-1.8-0.6-2.7,0
		c-1.5,1-3.1,2-4.6,3c-1.6,1.1-1.6,2.7,0.1,3.7c1.6,1,3.3,1.8,4.9,2.7C127.5,91.8,127.8,91.8,128.1,91.9z M177,102.5
		c2.5,0,4.6-2.1,4.6-4.6c0-2.5-2.2-4.7-4.8-4.6c-2.5,0-4.5,2.1-4.5,4.6C172.3,100.5,174.5,102.5,177,102.5z M83.5,97.9
		c0-2.6-2-4.6-4.6-4.6c-2.6,0-4.6,2-4.6,4.6c0,2.5,2,4.5,4.5,4.6C81.4,102.5,83.5,100.5,83.5,97.9z M144.5,92.4
		c2.6,0,4.6-2.1,4.6-4.7c0-2.5-2.1-4.5-4.6-4.5c-2.6,0-4.6,2-4.6,4.6C139.8,90.4,141.9,92.5,144.5,92.4z M111.9,83.2
		c-2.6,0-4.6,2-4.6,4.6c0,2.5,2,4.6,4.5,4.6c2.6,0,4.7-2,4.7-4.6C116.5,85.3,114.4,83.2,111.9,83.2z"/>
	<path class="st0" d="M129.7,75.4c15.5-0.2,32.5,3.7,49.1,9.8c7.7,2.9,14.9,6.5,22.1,10.5c0.9,0.5,1.8,1.1,2.7,1.8
		c1.2,0.8,1.5,1.7,0.9,2.6c-0.6,1.1-2.1,1.6-3.2,1c-1.9-1-3.7-2.1-5.6-3.2c-9.4-5.4-19.2-10.1-29.6-13.4c-7.2-2.3-14.4-4.3-21.8-5.4
		c-7.7-1.1-15.5-1.6-23.3-1.1c-14.9,1-29.1,5-42.9,10.6c-8,3.3-15.6,7.3-23,11.7c-1.5,0.9-2.7,0.8-3.7-0.2c-0.9-0.9-0.9-1.6,0.1-2.3
		c2.4-1.6,4.9-3.4,7.5-4.7c12.8-6.7,26.3-11.7,40.5-14.7C108.8,76.5,118,75.3,129.7,75.4z"/>
	<path class="st0" d="M128.6,95c21.4,0.9,41.4,6.6,59.3,18.8c1,0.7,1.9,1.4,2.8,2.2c1.1,1,1.2,2.1,0.5,3c-0.8,1-1.6,1-3,0.2
		c-5.1-3.1-10.1-6.7-15.5-9.3c-12-5.7-24.6-9.9-38-10.9c-10.9-0.9-21.6,0.4-32.1,3.4c-11.4,3.2-22,8.2-31.9,14.5
		c-0.9,0.6-1.8,1.2-2.6,1.9c-0.9,0.7-1.7,0.8-2.6,0c-0.9-0.9-1-1.7-0.1-2.7c0.7-0.8,1.6-1.6,2.5-2.2c10.9-7.5,23-12.4,35.8-15.6
		c7.1-1.8,14.3-2.7,21.6-2.9C126.4,95.2,127.5,95.1,128.6,95z"/>
	<path class="st0" d="M122.8,42c0-0.6,0-1,0-1.4c0-2.3,0.8-3.1,3.1-3.1c1.3,0,2.6,0,4,0c2.2,0,3,0.9,3.1,3c0,0.4,0,0.9,0,1.5
		c0.7,0,1.3,0,1.9,0c1.4,0,2.4,0.8,2.4,2.2c0.1,1.8,0.1,3.6,0,5.4c-0.1,1.7-0.9,2.4-2.6,2.5c-0.5,0-1.1,0-1.8,0c0,0.7,0,1.3,0,1.9
		c-0.1,1.7-0.8,2.5-2.5,2.6c-1.7,0.1-3.4,0.1-5,0c-1.8-0.1-2.5-1-2.5-2.8c0-0.5,0-1,0-1.7c-0.7,0-1.2,0-1.8,0
		c-1.8-0.1-2.7-0.9-2.8-2.7c0-1.5,0-3,0-4.6c0-1.9,0.9-2.8,2.9-2.8C121.7,42,122.2,42,122.8,42z"/>
	<path class="st0" d="M40.2,153.7c-3.9,0-7.7,0-11.6,0c0-7.6,0-15.2,0-22.8c3.8,0,7.7,0,11.6,0C40.2,138.4,40.2,146,40.2,153.7z"/>
	<path class="st0" d="M215.1,130.8c3.9,0,7.7,0,11.6,0c0,7.6,0,15.2,0,22.9c-3.9,0-7.7,0-11.6,0
		C215.1,146.1,215.1,138.5,215.1,130.8z"/>
	<path class="st0" d="M139.2,143.4c0-1.9,0-3.8,0-5.8c12.4,0,24.7,0,37.2,0c0,1.9,0,3.8,0,5.8C164.1,143.4,151.7,143.4,139.2,143.4z
		"/>
	<path class="st0" d="M116.1,143.4c-12.4,0-24.8,0-37.2,0c0-2,0-3.9,0-5.9c12.4,0,24.7,0,37.2,0
		C116.1,139.5,116.1,141.4,116.1,143.4z"/>
	<path class="st0" d="M170.4,51.1c0.7,0.1,1.6,0.6,2.1,0.4c0.6-0.3,0.7-1.3,1.1-2c0.5-0.8,1.4-0.9,2.2-0.7c1.5,0.5,3,1,4.5,1.6
		c1.2,0.5,1.5,1.4,1,2.9c-0.3,1-0.2,1.5,0.9,1.9c1.7,0.7,2,1.5,1.4,3.2c-0.4,1.2-0.8,2.4-1.3,3.6c-0.6,1.5-1.5,2-3,1.5
		c-1.1-0.4-1.6-0.1-2.1,1c-0.6,1.5-1.4,1.8-2.9,1.3c-1.3-0.4-2.6-0.9-3.8-1.4c-1.5-0.6-1.9-1.4-1.4-2.9c0.4-1.2,0.1-1.8-1.1-2.2
		c-1.4-0.5-1.7-1.3-1.3-2.8c0.4-1.4,1-2.9,1.5-4.3C168.6,51.4,169.3,51.1,170.4,51.1z"/>
	<path class="st0" d="M80.5,48.5c1.5,0,2.1,0.7,2.4,1.6c0.3,1,0.8,1.3,1.9,1c1.7-0.6,2.5-0.2,3.1,1.5c0.5,1.2,0.9,2.4,1.3,3.6
		c0.5,1.6,0.1,2.5-1.5,3.1c-1,0.4-1.3,0.8-0.9,1.8c0.6,1.8,0.2,2.6-1.6,3.2c-1.2,0.4-2.4,0.9-3.6,1.3c-1.5,0.5-2.5,0.1-3-1.3
		c-0.4-1.2-1-1.3-2.1-1c-1.6,0.5-2.3,0.1-2.9-1.4c-0.5-1.3-0.9-2.5-1.4-3.8c-0.5-1.6-0.1-2.4,1.4-3c1.1-0.4,1.3-0.9,0.9-2
		c-0.5-1.6-0.1-2.5,1.5-3.1C77.8,49.4,79.4,48.9,80.5,48.5z"/>
	<path class="st0" d="M68.2,67.6c0,4.3-2.9,7.2-7.1,7.2c-4.2,0-7.2-3-7.1-7.2c0-4.2,3.1-7.2,7.2-7.2C65.2,60.5,68.2,63.5,68.2,67.6z
		"/>
	<path class="st0" d="M144.4,53.3c0-4.2,3-7.2,7.2-7.2c4.1,0,7.1,3,7.1,7.1c0.1,4.2-2.9,7.2-7.1,7.2
		C147.3,60.5,144.4,57.5,144.4,53.3z"/>
	<path class="st0" d="M96.5,53.3c0-4.1,3.1-7.2,7.2-7.2c4.1,0,7.1,3.1,7.1,7.2c0,4.2-2.9,7.2-7.2,7.2C99.5,60.4,96.5,57.5,96.5,53.3
		z"/>
	<path class="st0" d="M194.9,74.7c-4.3,0-7.2-2.9-7.2-7.1c0-4.1,3.1-7.2,7.2-7.2c4.1,0,7.1,3,7.1,7.1
		C202.1,71.8,199.1,74.7,194.9,74.7z"/>
	<path class="st0" d="M188,143.4c0-2,0-3.9,0-5.9c8.2,0,16.4,0,24.6,0c0,2,0,3.9,0,5.9C204.4,143.4,196.2,143.4,188,143.4z"/>
	<path class="st0" d="M42.8,137.5c8.2,0,16.3,0,24.6,0c0,2,0,3.9,0,5.9c-8.2,0-16.3,0-24.6,0C42.8,141.5,42.8,139.6,42.8,137.5z"/>
	<path class="st0" d="M127.1,258.6c-0.8-0.1-1.6-0.2-2.4-0.3c-0.6-0.1-1-0.6-0.6-1.3c1-1.6,1.3-3.3,0.9-5.2
		c-0.1-0.4,0.3-1.1,0.7-1.4c1.7-1.6,2.5-3.5,2.3-5.8c-0.3-3.1,3.4-5,5.7-4.7c0.5,0.1,1,0.7,1.2,1.2c1.7,4.4,1,8.5-1.5,12.4
		c-0.7,1.1-1.5,2.2-2.4,3.2C130.2,257.9,128.8,258.6,127.1,258.6z"/>
	<path class="st0" d="M134.6,230.5c2.1,0,4.6,0.1,6.2,2.6c0.7,1,0.6,1.6-0.6,1.9c-2,0.5-3.7,1.4-5.2,2.9c-0.3,0.3-0.9,0.5-1.4,0.5
		c-2.7,0.2-4.9,1.2-6.3,3.5c-0.6,1-1.3,1.2-2.3,0.6c-0.1-0.1-0.2-0.1-0.3-0.2c-4.1-3-3.7-5.3-0.6-8.1
		C126.9,231.6,130.4,230.7,134.6,230.5z"/>
	<path class="st0" d="M77.6,149.2c-3,0-5.9,0-8.9,0c0-4.8,0-9.5,0-14.3c2.9,0,5.9,0,8.9,0C77.6,139.7,77.6,144.4,77.6,149.2z"/>
	<path class="st0" d="M117.4,149.1c0-4.7,0-9.4,0-14.1c3,0,5.9,0,9,0c0,4.7,0,9.3,0,14.1C123.4,149.1,120.5,149.1,117.4,149.1z"/>
	<path class="st0" d="M139.2,146.1c0.5,0,0.8,0,1.2,0c7,0,14,0,21,0c0.7,0,1.5,0.3,2.1,0.7c1.6,1.1,3.1,2.4,4.7,3.6
		c0,0.1-0.1,0.2-0.1,0.3c-9.6,0-19.2,0-28.9,0C139.2,149.2,139.2,147.7,139.2,146.1z"/>
	<path class="st0" d="M87.3,150.3c1.9-1.4,3.7-2.8,5.6-4.1c0.2-0.1,0.5-0.1,0.7-0.1c7.4,0,14.7,0,22.1,0c0.1,0,0.2,0,0.4,0.1
		c0,1.4,0,2.9,0,4.4c-9.6,0-19.1,0-28.7,0C87.4,150.5,87.3,150.4,87.3,150.3z"/>
	<path class="st0" d="M132.9,257.3c0.3-0.5,0.6-1.1,1-1.5c2.9-3.9,4.4-8.1,3.4-13c-0.2-0.9-0.6-1.8-1-2.7c-0.3-0.7-0.2-1.3,0.4-1.8
		c1.4-1.3,3-1.9,4.8-2.1c0.4-0.1,1.2,0.4,1.3,0.8c3.4,8.1-0.8,17.1-8.5,20.4c-0.4,0.2-0.8,0.2-1.2,0.2
		C133,257.5,132.9,257.4,132.9,257.3z"/>
	<path class="st0" d="M127,245.6c-0.8,1.3-1.2,2.6-2.1,3.5c-0.4,0.5-1.6,0.7-2.3,0.5c-3-1-5.8-2.4-8.1-4.7c-0.9-0.9-1.6-2.1-2.3-3.2
		c-0.2-0.3-0.2-0.7-0.2-1c0.4-1.4,0.8-2.8,1.3-4.2c0.4-1.1,0.9-1,1.8-0.4c1.4,1,2.9,1.8,4.3,2.7c0.4,0.3,0.9,0.6,1.1,1
		c1,2.1,2.6,3.4,4.7,4.4C126,244.4,126.4,245,127,245.6z"/>
	<path class="st0" d="M134.1,228.9c-1,0.2-2.1,0.4-3.1,0.6c-3.3,0.7-6.4,1.9-8.7,4.6c-0.6,0.7-1.1,1.5-1.5,2.3
		c-0.5,0.9-1.1,1.1-1.9,0.5c-1-0.7-1.9-1.4-2.9-2.1c-0.9-0.6-0.8-1.3-0.2-2.1c2.6-2.9,5.8-4.7,9.7-5.5c2.6-0.5,5.1,0,7.6,0.6
		c0.4,0.1,0.8,0.4,1.2,0.6C134.2,228.6,134.2,228.8,134.1,228.9z"/>
	<path class="st0" d="M112.6,245.5c0.6,0.3,1.1,0.5,1.5,0.9c2.3,2,4.9,3.5,7.8,4.5c1.1,0.4,1.8,1,1.8,2.2c0,1.4-0.2,2.8-1.5,3.7
		c-0.3,0.2-1,0.2-1.3,0c-4.3-2.1-7-5.6-8.4-10.2c0-0.1,0-0.3,0-0.5C112.5,246,112.6,245.8,112.6,245.5z"/>
	<path class="st0" d="M187.6,103.8c2.2,0.3,4.4,0.7,6.6,1.1c0.1,0,0.3,0.1,0.4,0.2c1.4,1.7,2.8,3.4,4.3,5.1
		c-0.1,0.1-0.1,0.2-0.2,0.3c-1.5-0.3-3-0.6-4.5-0.8c-1.5-0.2-2.7-0.9-3.7-2.1c-0.9-1.2-2-2.3-3-3.4
		C187.5,104,187.5,103.9,187.6,103.8z"/>
	<path class="st0" d="M57,110.1c1.3-1.6,2.6-3.2,3.9-4.8c0.4-0.4,1-0.8,1.5-0.9c1.9-0.3,3.9-0.6,6.2-0.9c-0.6,0.7-1,1.2-1.4,1.7
		c-1.9,2.6-4.2,4.4-7.5,4.5c-0.9,0-1.7,0.3-2.6,0.5C57.2,110.3,57.1,110.2,57,110.1z"/>
	<path class="st0" d="M85.8,146.2c-1.5,1.4-2.9,2.8-4.4,4c-0.5,0.4-1.5,0.4-2.4,0.5c0-1.6,0-3,0-4.5
		C81.2,146.2,83.4,146.2,85.8,146.2z"/>
	<path class="st0" d="M176.4,146.2c0,1.5,0,2.9,0,4.3c-1.1,0.3-2,0.1-2.8-0.7c-1.2-1.2-2.5-2.3-3.9-3.6
		C172,146.2,174.1,146.2,176.4,146.2z"/>
	<path d="M201.5,232.5c-1.4,1.4-3,2-4.8,1.4c-2.8-0.9-4-3.4-2.9-6.5c0.9-2.6,1.9-5.1,2.9-7.7c1.4,0.6,2.7,1.1,4,1.6
		c3.8,1.5,7.6,3.1,11.4,4.6c0.9,0.4,1.1,0.8,0.7,1.7c-0.9,1.9-1.6,3.9-2.5,5.8c-0.8,1.7-2,2.9-4,3.1c-2,0.2-3.8-0.9-4.5-2.8
		C201.8,233.3,201.7,232.9,201.5,232.5z M198.3,224.1c-0.5,1.5-1.1,2.9-1.5,4.4c-0.3,0.9,0.2,1.6,1.1,2c0.9,0.4,1.8,0.5,2.4-0.4
		c0.8-1.4,1.5-2.9,2.2-4.4C201,225.1,199.7,224.6,198.3,224.1z M205.1,226.8c-0.4,1.4-0.9,2.6-1.2,3.9c-0.2,0.9,0.4,1.6,1.3,1.9
		c0.8,0.3,1.7,0.2,2.1-0.6c0.7-1.1,1.2-2.4,1.8-3.6C207.7,227.9,206.5,227.4,205.1,226.8z"/>
	<path d="M193.9,255c-4.9-0.1-9.6-4.4-9.9-9.2c-0.3-5.2,4.5-8.8,8.7-8.1c4.5,0.8,8.2,4,9,7.9C202.7,250.5,198.9,255.1,193.9,255z
		 M191.3,241.2c-3,0-4.9,3.1-3.5,5.8c1.2,2.4,3.3,3.9,6,4.3c3,0.5,5.2-2.1,4.4-5C197.5,243.9,193.9,241.2,191.3,241.2z"/>
	<path d="M218,200c-1.5,0.1-2.9,0.2-4.3,0.3c-2.6,0.1-5.1,0.4-7.7,0.3c-4.9-0.1-6.9-3.6-6.5-7.6c0.3-3.4,2.3-5.4,5.6-5.7
		c4-0.4,7.9-0.5,12-0.8c0.1,1.2,0.2,2.3,0.3,3.6c-2.5,0.2-4.9,0.3-7.3,0.5c-1.4,0.1-2.9,0.1-4.3,0.3c-2.4,0.3-3.6,2.2-2.8,4.4
		c0.4,1.2,1.5,1.9,3.2,1.8c3.4-0.1,6.8-0.3,10.2-0.5c0.4,0,0.8,0,1.3,0C217.8,197.7,217.9,198.8,218,200z"/>
	<path d="M196.7,176.9c-0.3-1.2-0.6-2.2-1-3.4c5.7-1.7,11.4-3.3,17.1-4.9c1.1,3.6,2.1,7.2,3.2,10.9c-1,0.3-2,0.6-3.1,0.9
		c-0.8-2.5-1.5-4.9-2.2-7.5c-1.3,0.4-2.6,0.7-3.9,1.1c0.6,2.2,1.2,4.4,1.9,6.6c-1,0.3-2,0.6-3.1,0.9c-0.7-2.2-1.3-4.3-2-6.6
		C201.2,175.6,199.1,176.2,196.7,176.9z"/>
	<path d="M198.6,212.1c0.2-1.2,0.4-2.3,0.6-3.5c4.8,0.8,9.5,1.6,14.3,2.4c0.3-1.5,0.5-2.8,0.8-4.4c1.1,0.2,2.1,0.3,3.2,0.5
		c-0.7,4.1-1.4,8.2-2.1,12.3c-1.1-0.2-2.1-0.3-3.2-0.5c0.2-1.5,0.4-2.9,0.7-4.5C208.1,213.7,203.4,212.9,198.6,212.1z"/>
	<path d="M178.1,249.9c3.9,4.6,7.6,9,11.4,13.6c-0.9,0.8-1.8,1.5-2.7,2.3c-3.1-3.7-6.2-7.3-9.4-11.1c-1.9,1.5-3.7,3-5.5,4.6
		c-0.7-0.8-1.4-1.6-2.1-2.5C172.6,254.6,175.3,252.3,178.1,249.9z"/>
	<path d="M86.8,257.1c-3.9,4.6-7.6,9-11.5,13.7c-2.2-2-4.4-3.8-6.4-5.8c-1.3-1.3-1.6-3-0.7-4.8c1-1.9,2.7-2.6,4.8-2.6
		c-0.1-0.4-0.2-0.7-0.3-0.9c-0.7-1.8-0.2-3.4,1.1-4.7c1.3-1.3,2.9-1.7,4.6-1c1.1,0.4,2.1,1,3,1.7C83.3,254,85,255.5,86.8,257.1z
		 M82.2,257.2c-1.2-0.9-2.3-1.8-3.4-2.6c-1-0.7-2-0.5-2.7,0.4c-0.7,0.8-0.7,1.8,0.1,2.7c1,1,2,1.9,3.1,2.9
		C80.3,259.4,81.2,258.3,82.2,257.2z M77.4,262.8c-1-0.8-1.9-1.6-2.9-2.2c-1-0.6-2-0.4-2.7,0.4c-0.6,0.8-0.6,1.9,0.2,2.7
		c0.8,0.8,1.7,1.5,2.6,2.3C75.6,264.9,76.4,263.9,77.4,262.8z"/>
	<path d="M54.7,225.1c1.5-2,3-3.9,4.6-6c0.5,1.3,1,2.4,1.4,3.5c0.1,0.3-0.2,0.7-0.4,1c-0.7,1-1.5,2-2.3,2.9
		c-1.4,1.7-1.4,1.7-0.2,3.8c0.9-0.3,1.7-0.7,2.6-1.1c0.9-0.4,1.8-0.7,2.7-1.1c0.5,1.1,0.9,2.2,1.4,3.3c-5.5,2.3-10.9,4.6-16.5,6.9
		c-1-2.8-2.2-5.5-3-8.3c-0.6-2.1,0.2-3.9,2.1-5.2c2-1.4,4.2-1.8,6.4-0.6C53.9,224.5,54.2,224.8,54.7,225.1z M54.7,231.6
		c-0.6-1.2-1-2.3-1.6-3.3c-0.7-1.1-1.9-1.4-3.2-0.8c-1.2,0.5-1.9,1.4-1.6,2.5c0.3,1.3,0.8,2.5,1.3,3.8
		C51.4,233,52.9,232.4,54.7,231.6z"/>
	<path d="M47.6,181.9c3,0,5.8,0.8,7.8,3.2c2.1,2.4,2.4,5.2,1.2,8.2c-1.3,3-3.7,4.4-6.8,4.7c-2.4,0.3-4.8-0.2-6.9-1.4
		c-2.9-1.6-4.6-5.1-3.9-8.1c0.9-3.9,3.7-6.4,7.3-6.6C46.8,181.9,47.2,181.9,47.6,181.9z M48.4,194.5c1.1-0.2,1.9-0.3,2.6-0.5
		c1.8-0.5,2.9-1.9,3-3.5c0.1-1.9-0.8-3.3-2.6-4c-1.8-0.7-3.6-1.1-5.6-0.7c-1.8,0.4-3.2,1.7-3.5,3.5c-0.3,1.7,0.6,3.4,2.4,4.2
		C45.9,193.9,47.3,194.2,48.4,194.5z"/>
	<path d="M40.6,205.1c1,0.5,1.9,1,2.7,1.5c-0.2,1.1-0.6,2.2-0.6,3.2c-0.1,2.1,1.1,3.7,3.1,4.3c2.4,0.6,4.6,0.3,6.6-1.1
		c1.7-1.2,2.3-3.5,1.5-5.4c-0.4-1-1-1.6-2.2-1.2c-0.6,0.2-1.2,0.2-1.8,0.3c0.1,1.1,0.2,2,0.3,3.2c-1,0.2-1.9,0.3-3,0.5
		c-0.4-2.2-0.7-4.3-1.1-6.6c2-0.3,3.9-0.5,5.7-1c2.3-0.7,3.5,0.5,4.5,2.3c3.3,5.8,0,12-6.7,12.9c-4.9,0.6-8.5-1.4-9.9-5.4
		C38.9,210,39.1,207.5,40.6,205.1z"/>
	<path d="M54.2,248.6c-0.7-1-1.4-1.9-2.1-2.8c0.6-0.5,1.2-0.9,1.7-1.3c2.5-1.8,5-3.6,7.4-5.4c2.2-1.6,4.6-2.1,7.1-0.7
		c2.5,1.4,3.8,3.7,3.8,6.6c0,2.2-1.3,3.6-2.9,4.9c-2.2,1.7-4.4,3.3-6.6,4.9c-0.8,0.6-1.7,1.2-2.6,1.9c-0.7-1-1.4-1.9-2.1-2.9
		c1.8-1.3,3.5-2.6,5.3-3.9c1.3-1,2.7-2,4-3c1.3-1.1,1.7-2.5,1-3.8c-0.9-1.8-2.7-2.5-4.5-1.3c-2.5,1.7-5,3.5-7.4,5.3
		C55.8,247.5,55.1,248,54.2,248.6z"/>
	<path d="M47.6,163.8c0.6,0.9,1.2,1.8,1.7,2.5c-0.9,1.2-1.7,2.3-2.5,3.5c-0.5,0.7-0.5,1.5,0.3,2.1c0.8,0.6,1.6,0.5,2.3-0.2
		c1-0.9,1.9-1.9,2.9-2.9c2.3-2.3,4.2-2.6,6.5-1.3c2.3,1.3,3.1,3.6,2.3,6.4c-0.7,2.6-2.3,4.5-4.8,5.8c-0.6-0.9-1.1-1.8-1.7-2.7
		c0.6-0.4,1.2-0.8,1.5-1.2c0.7-0.9,1.4-1.8,1.8-2.7c0.4-0.8,0.2-1.8-0.7-2.3c-0.9-0.6-1.7-0.2-2.3,0.5c-1.2,1.2-2.4,2.5-3.7,3.6
		c-1.5,1.3-3.3,1.5-5,0.7c-1.9-0.9-2.9-2.5-2.9-4.5C43.3,167.9,44.9,165.6,47.6,163.8z"/>
	<path d="M150.8,111.2c2.7,1.1,5.4,2,7.9,3.1c1.8,0.7,2.8,2.1,2.6,4.1c-0.1,1.9-1.1,3.2-3.1,4c-0.1,0.1-0.3,0.1-0.5,0.3
		c0.1,0.2,0.2,0.3,0.3,0.5c1.5,1.7,1.8,3.4,0.8,5.4c-0.9,1.8-2.6,2.8-4.8,2.4c-2.3-0.4-4.5-1.2-6.8-1.8c-0.7-0.2-1.3-0.5-2.2-0.7
		C147,122.6,148.8,117,150.8,111.2z M149.4,126.4c1.4,0.4,2.7,0.9,4.1,1.2c1.1,0.3,2.1-0.3,2.4-1.3c0.4-1.1,0-2.1-1.1-2.6
		c-1.3-0.6-2.6-1-4-1.5C150.3,123.7,149.9,125,149.4,126.4z M151.7,119.5c1.3,0.3,2.6,0.7,3.8,0.9c1,0.2,1.6-0.4,2-1.3
		c0.3-0.9,0.1-1.7-0.7-2.2c-1.2-0.6-2.4-1-3.7-1.5C152.6,116.9,152.2,118.1,151.7,119.5z"/>
	<path d="M142.4,109.8c-0.2,3-0.5,5.8-0.7,8.7c-0.1,1.5-0.3,2.9-0.6,4.4c-0.5,2.2-1.9,3.6-4.1,4.2c-2,0.5-3.9,0.5-5.7-0.5
		c-2.1-1.1-3.3-2.8-3.1-5.2c0.2-4.2,0.5-8.3,0.7-12.7c1.3,0.1,2.4,0.3,3.6,0.4c-0.1,1.5-0.2,3-0.3,4.5c-0.2,2.2-0.4,4.4-0.6,6.6
		c-0.2,2.4,1.1,3.9,3.4,3.8c1.5,0,2.6-0.9,2.8-2.4c0.4-3.3,0.7-6.7,1-10c0.1-0.6,0.1-1.3,0.2-2C140.1,109.6,141.1,109.7,142.4,109.8
		z"/>
	<path d="M105.4,113.9c-0.3,1-0.6,2-1,3c-0.7-0.1-1.2-0.2-1.8-0.3c-2.9-0.4-4.9,1.2-4.8,4.1c0,1.9,0.6,3.7,1.8,5.2
		c2.2,2.7,5.2,2.6,7.1-0.4c0.1-0.2,0.3-0.5,0.5-0.8c0.9,0.5,1.8,1,2.7,1.5c-0.6,2.7-3.6,4.9-6.6,5.1c-2.5,0.2-4.6-0.7-6.2-2.6
		c-2.3-2.9-3.7-6.1-2.7-9.9c1.2-4.5,6.3-7,10.4-5.3C105,113.6,105.2,113.7,105.4,113.9z"/>
	<path d="M114.2,128c-0.8-5.9-1.5-11.7-2.3-17.6c1.1-0.2,2.2-0.4,3.5-0.6c0.7,4.8,1.3,9.6,2,14.4c2.4-0.3,4.7-0.6,7.1-0.9
		c0.1,1.1,0.3,2.1,0.4,3.2C121.4,127.1,117.9,127.5,114.2,128z"/>
	<path d="M84.7,93.8c0-1.6,1-3.1,2.6-3.6c4.3-1.4,8.5-2.7,12.8-3.9c1.8-0.5,3.6,0.5,4.4,2.3c0.8,1.9,0.3,3.8-1.4,4.8
		c-1.2,0.7-2.5,1.1-3.9,1.6c-3.3,1-6.5,2-9.9,2.8C86.7,98.3,84.7,96.5,84.7,93.8z M103.7,90.4c0-2.2-1.6-3.5-3.6-3
		c-3.9,1.2-7.9,2.3-11.8,3.6c-2,0.6-2.8,1.9-2.3,3.5c0.5,1.8,1.6,2.4,3.7,1.9c1.7-0.4,3.4-0.9,5.1-1.4c2.4-0.7,4.7-1.5,7-2.3
		C102.9,92.3,103.7,91.6,103.7,90.4z"/>
	<path d="M166.4,97.7c-0.2,0-0.6-0.1-1.1-0.2c-3.8-1.2-7.7-2.4-11.5-3.7c-3.2-1.1-3.9-4.7-1.4-6.8c1-0.8,2.2-1,3.4-0.7
		c4.1,1.2,8.2,2.4,12.2,3.7c2.1,0.6,3.3,2.5,2.9,4.4C170.6,96.5,168.9,97.8,166.4,97.7z M166.4,96.5c2,0,3.2-0.8,3.4-2.3
		c0.2-1.4-0.6-2.6-2.2-3.1c-4-1.2-8.1-2.5-12.1-3.7c-1-0.3-1.9-0.1-2.6,0.6c-1.6,1.6-1,3.9,1.2,4.6c3.8,1.3,7.6,2.5,11.4,3.7
		C165.9,96.5,166.3,96.5,166.4,96.5z"/>
	<path d="M128.1,91.9c-0.3-0.1-0.6-0.2-0.9-0.3c-1.7-0.9-3.3-1.7-4.9-2.7c-1.7-1-1.7-2.6-0.1-3.7c1.5-1,3.1-2,4.6-3
		c0.9-0.6,1.8-0.6,2.7,0c1.5,1,3.1,2,4.6,3c1.6,1.1,1.6,2.8-0.1,3.7c-1.6,0.9-3.1,1.7-4.7,2.6C128.9,91.7,128.5,91.8,128.1,91.9z
		 M134.2,87.1c-0.3-0.4-0.5-0.7-0.8-0.9c-1.5-1-2.9-2-4.4-2.8c-0.4-0.2-1.2-0.2-1.6,0c-1.5,0.9-3,1.8-4.4,2.8
		c-0.9,0.6-0.9,1.3,0,1.8c1.5,0.9,3.1,1.7,4.6,2.5c0.4,0.2,1,0.1,1.3,0c1.5-0.8,3-1.6,4.5-2.5C133.7,87.8,133.9,87.4,134.2,87.1z"/>
	<path d="M177,102.5c-2.6,0-4.7-2.1-4.7-4.6c0-2.5,2-4.6,4.5-4.6c2.6,0,4.8,2.1,4.8,4.6C181.6,100.4,179.5,102.5,177,102.5z
		 M176.9,101.3c1.9,0,3.5-1.5,3.5-3.4c0-1.9-1.5-3.4-3.4-3.4c-1.9,0-3.4,1.5-3.5,3.4C173.5,99.8,175,101.3,176.9,101.3z"/>
	<path d="M83.5,97.9c0,2.6-2.1,4.6-4.7,4.6c-2.5,0-4.5-2-4.5-4.6c0-2.6,2-4.6,4.6-4.6C81.5,93.3,83.5,95.4,83.5,97.9z M78.9,94.5
		c-1.9,0-3.4,1.5-3.4,3.4c0,1.9,1.5,3.4,3.4,3.4c1.9,0,3.5-1.5,3.5-3.4C82.4,96,80.8,94.5,78.9,94.5z"/>
	<path d="M144.5,92.4c-2.6,0-4.6-2-4.7-4.6c0-2.6,2-4.6,4.6-4.6c2.5,0,4.6,2,4.6,4.5C149.1,90.3,147,92.4,144.5,92.4z M144.4,91.3
		c1.9,0,3.4-1.5,3.4-3.4c0-1.9-1.6-3.5-3.5-3.4c-1.9,0-3.4,1.6-3.4,3.5C141,89.8,142.5,91.3,144.4,91.3z"/>
	<path d="M111.9,83.2c2.6,0,4.6,2,4.6,4.6c0,2.6-2.1,4.6-4.7,4.6c-2.5,0-4.5-2.1-4.5-4.6C107.2,85.3,109.3,83.2,111.9,83.2z
		 M115.3,87.8c0-1.9-1.5-3.4-3.4-3.4c-1.9,0-3.5,1.5-3.5,3.5c0,1.9,1.6,3.4,3.5,3.4C113.8,91.2,115.3,89.7,115.3,87.8z"/>
	<path class="st0" d="M198.3,224.1c1.4,0.6,2.7,1.1,4.2,1.7c-0.8,1.5-1.4,3-2.2,4.4c-0.5,0.9-1.5,0.8-2.4,0.4
		c-0.9-0.4-1.3-1.1-1.1-2C197.3,227,197.8,225.6,198.3,224.1z"/>
	<path class="st0" d="M205.1,226.8c1.4,0.6,2.6,1.1,4,1.6c-0.6,1.3-1.1,2.5-1.8,3.6c-0.5,0.8-1.3,0.9-2.1,0.6
		c-0.9-0.3-1.5-1-1.3-1.9C204.2,229.5,204.7,228.2,205.1,226.8z"/>
	<path class="st0" d="M191.3,241.2c2.6,0,6.1,2.6,6.9,5.1c0.8,2.9-1.4,5.5-4.4,5c-2.7-0.4-4.7-1.9-6-4.3
		C186.4,244.3,188.3,241.2,191.3,241.2z"/>
	<path class="st0" d="M82.2,257.2c-1,1.1-1.9,2.2-2.9,3.4c-1.1-1-2.2-1.9-3.1-2.9c-0.8-0.8-0.8-1.8-0.1-2.7c0.7-0.9,1.7-1.1,2.7-0.4
		C79.9,255.4,81,256.3,82.2,257.2z"/>
	<path class="st0" d="M77.4,262.8c-1,1.2-1.8,2.1-2.7,3.2c-0.9-0.8-1.8-1.5-2.6-2.3c-0.8-0.8-0.9-1.9-0.2-2.7
		c0.7-0.9,1.6-1.1,2.7-0.4C75.5,261.2,76.4,262,77.4,262.8z"/>
	<path class="st0" d="M54.7,231.6c-1.8,0.7-3.3,1.4-5.1,2.1c-0.4-1.3-0.9-2.5-1.3-3.8c-0.3-1.1,0.4-2,1.6-2.5
		c1.3-0.5,2.5-0.3,3.2,0.8C53.7,229.3,54.1,230.4,54.7,231.6z"/>
	<path class="st0" d="M48.4,194.5c-1.1-0.3-2.5-0.6-3.7-1.1c-1.8-0.8-2.6-2.5-2.4-4.2c0.3-1.7,1.7-3.1,3.5-3.5c2-0.4,3.8,0,5.6,0.7
		c1.8,0.8,2.7,2.2,2.6,4c-0.1,1.6-1.2,3-3,3.5C50.3,194.2,49.5,194.3,48.4,194.5z"/>
	<path class="st0" d="M149.4,126.4c0.5-1.4,0.9-2.7,1.4-4.2c1.4,0.5,2.7,1,4,1.5c1.1,0.5,1.5,1.5,1.1,2.6c-0.4,1-1.3,1.5-2.4,1.3
		C152.2,127.3,150.9,126.9,149.4,126.4z"/>
	<path class="st0" d="M151.7,119.5c0.5-1.4,0.9-2.7,1.4-4.1c1.3,0.5,2.6,0.9,3.7,1.5c0.8,0.4,1,1.3,0.7,2.2c-0.3,0.9-1,1.5-2,1.3
		C154.3,120.2,153,119.9,151.7,119.5z"/>
	<path class="st0" d="M103.7,90.4c0,1.1-0.7,1.9-1.9,2.3c-2.3,0.8-4.7,1.6-7,2.3c-1.7,0.5-3.4,1-5.1,1.4c-2.1,0.5-3.2-0.1-3.7-1.9
		c-0.4-1.7,0.4-2.9,2.3-3.5c3.9-1.2,7.8-2.4,11.8-3.6C102.1,86.9,103.7,88.2,103.7,90.4z"/>
	<path class="st0" d="M166.4,96.5c-0.1,0-0.5-0.1-0.9-0.2c-3.8-1.2-7.6-2.4-11.4-3.7c-2.2-0.8-2.8-3-1.2-4.6
		c0.8-0.8,1.6-0.9,2.6-0.6c4,1.2,8.1,2.4,12.1,3.7c1.6,0.5,2.4,1.7,2.2,3.1C169.6,95.7,168.4,96.6,166.4,96.5z"/>
	<path class="st0" d="M134.2,87.1c-0.3,0.4-0.5,0.7-0.9,0.9c-1.5,0.9-3,1.7-4.5,2.5c-0.4,0.2-1,0.2-1.3,0c-1.6-0.8-3.1-1.6-4.6-2.5
		c-0.9-0.6-0.9-1.2,0-1.8c1.5-1,2.9-2,4.4-2.8c0.4-0.2,1.2-0.2,1.6,0c1.5,0.9,3,1.9,4.4,2.8C133.7,86.3,133.9,86.7,134.2,87.1z"/>
	<path class="st0" d="M176.9,101.3c-1.9,0-3.4-1.5-3.4-3.4c0-1.9,1.6-3.4,3.5-3.4c1.9,0,3.4,1.6,3.4,3.4
		C180.4,99.8,178.8,101.3,176.9,101.3z"/>
	<path class="st0" d="M78.9,94.5c2,0,3.5,1.5,3.5,3.5c0,1.9-1.6,3.4-3.5,3.4c-1.9,0-3.4-1.5-3.4-3.4C75.5,96,77,94.5,78.9,94.5z"/>
	<path class="st0" d="M144.4,91.3c-1.9,0-3.4-1.5-3.4-3.4c0-1.9,1.5-3.4,3.4-3.5c2,0,3.5,1.5,3.5,3.4
		C147.9,89.7,146.3,91.2,144.4,91.3z"/>
	<path class="st0" d="M115.3,87.8c0,1.9-1.5,3.4-3.4,3.4c-1.9,0-3.4-1.5-3.5-3.4c0-1.9,1.5-3.5,3.5-3.5
		C113.8,84.4,115.3,85.9,115.3,87.8z"/>
</g>
</svg>
